test_run_dir/Action_FMS_wave598330816/Action_FMS.vcd
$date
2021-01-18T14:56+0000
$end
$version
0.2
$end
$comment

$end
$timescale 1ns  $end
$scope module Action_FMS $end
 $var wire 1 ! io_exploit $end
 $var wire 1 " _GEN_2 $end
 $var wire 3 # _GEN_10 $end
 $var wire 1 $ _T $end
 $var wire 3 % _GEN_5 $end
 $var wire 1 & _GEN_13 $end
 $var wire 1 ' io_validAction $end
 $var wire 3 ( _GEN_8 $end
 $var wire 1 ) io_reset_Action $end
 $var wire 3 * _GEN_12 $end
 $var wire 1 + io_move_to_confirming_Reward $end
 $var wire 1 , _GEN_7 $end
 $var wire 3 - _GEN_1 $end
 $var wire 1 . _GEN_4 $end
 $var wire 1 / clock $end
 $var wire 1 0 _GEN_11 $end
 $var wire 3 1 _GEN_6 $end
 $var wire 3 2 _GEN_0 $end
 $var wire 1 3 _GEN_9 $end
 $var wire 3 4 action_FMS $end
 $var wire 1 5 reset $end
 $var wire 3 6 _GEN_3 $end
$upscope $end
$enddefinitions $end
$dumpvars
b000 1
0&
05
b000 #
b000 2
b000 *
0'
0.
b000 %
0/
0!
00
b000 -
b000 4
0"
0)
b000 6
0+
b000 (
0,
0$
03
$end
#0
b010 -
15
b010 *
1$
#1
1/
#6
0/
#11
1/
#16
0/
#21
1/
#26
0/
#31
1/
#36
0/
#41
1/
#46
05
0/
#51
b010 %
b010 4
b010 1
b011 #
b010 2
b011 *
0$
b011 (
1/
#56
0/
#61
b011 %
b011 4
b100 1
b100 #
b011 2
b100 *
b100 (
1/
#66
0/
#71
b000 %
b100 4
b000 1
b000 #
b100 2
b000 *
b000 (
1/
#76
0/
#81
b000 4
b000 2
b010 *
1$
1/
#86
0/
#91
b010 %
b010 4
b010 1
b011 #
b010 2
b011 *
0$
b011 (
1/
#96
0/
#101
b011 %
b011 4
b100 1
b100 #
b011 2
b100 *
b100 (
1/
#106
1"
1'
b011 6
0/
#111
13
10
b100 %
b100 4
1.
1&
b100 2
b100 6
1+
1/
1,
#116
1!
b001 -
0/
#121
1/
#126
0/
#131
1/
#136
0/
#141
1/
#146
0/
#151
1/
#156
0/
#161
1/
#166
0/
#171
1/
#176
0/
#181
1/
#186
b000 %
b000 1
b000 #
b000 2
b000 *
b000 6
b000 (
0/
1)
#191
03
00
b000 4
0.
0&
b001 *
1$
0+
1/
0,
#196
0/
0)
#201
b001 %
b001 4
b001 1
b011 #
b001 2
b011 *
0$
b001 6
b001 (
1/
#206
0/
#211
b011 %
b011 4
b100 1
b100 #
b011 2
b100 *
b011 6
b100 (
1/
#216
0/
#221
13
10
b100 %
b100 4
1.
1&
b100 2
b100 6
1+
1/
1,
