test_run_dir/routingWaveform1119623404/QtableRouting.vcd
$date
2021-01-21T06:27+0000
$end
$version
0.2
$end
$comment

$end
$timescale 1ns  $end
$scope module QtableRouting $end
 $var wire 6 b io_path $end
 $var wire 1 o io_routing $end
 $var wire 21 "" io_Q_prime_max $end
 $var wire 21 "K io_Q_s_a $end
 $var wire 2 "[ io_act $end
 $var wire 1 "f Q_tab $end
 $var wire 21 "p io_Q_updated $end
 $var wire 1 "y clock $end
 $var wire 6 #0 io_state $end
 $var wire 2 #; io_action_at_Qmax $end
 $var wire 1 #E io_done $end
 $var wire 1 #k io_wrEna $end
 $var wire 6 #} io_new_state $end
 $var wire 1 $" reset $end
 $var wire 1 $0 routing $end
  $scope module Q_tab.index_of_Q_max $end
  $upscope $end
  $scope module Q_tab.max4 $end
  $upscope $end
  $scope module routing $end
   $var wire 1 % io_routing $end
   $var wire 2 @ io_act $end
   $var wire 1 A reset $end
   $var wire 9 j _GEN_4 $end
   $var wire 9 "' _GEN_1 $end
   $var wire 6 ", io_path $end
   $var wire 6 "? io_state_out $end
   $var wire 6 "D state $end
   $var wire 3 "e _T $end
   $var wire 9 "l _GEN_0 $end
   $var wire 1 #& _GEN_3 $end
   $var wire 1 #+ clock $end
   $var wire 1 #> _GEN_6 $end
   $var wire 6 #_ io_starting_state $end
   $var wire 1 #o io_done $end
   $var wire 6 #{ _GEN_5 $end
   $var wire 9 $= _GEN_2 $end
  $upscope $end
  $scope module Q_tab.max41 $end
  $upscope $end
  $scope module Q_tab $end
   $var wire 1 & clock $end
   $var wire 5 ( _GEN_65 $end
   $var wire 5 ) _GEN_71 $end
   $var wire 5 * _GEN_4 $end
   $var wire 21 , _GEN_18 $end
   $var wire 6 - io_new_state $end
   $var wire 1 / _GEN_80 $end
   $var wire 5 1 _GEN_53 $end
   $var wire 5 2 _GEN_47 $end
   $var wire 5 3 _GEN_7 $end
   $var wire 1 6 _GEN_68 $end
   $var wire 1 < _GEN_74 $end
   $var wire 1 C _GEN_41 $end
   $var wire 1 I _GEN_62 $end
   $var wire 1 J _GEN_56 $end
   $var wire 1 L _GEN_29 $end
   $var wire 21 N _GEN_77 $end
   $var wire 1 P _T $end
   $var wire 21 Y _GEN_35 $end
   $var wire 1 ] _GEN_50 $end
   $var wire 1 a _GEN_38 $end
   $var wire 1 h _GEN_23 $end
   $var wire 5 i _GEN_59 $end
   $var wire 1 l _GEN_17 $end
   $var wire 21 m Q_s_Act1 $end
   $var wire 1 n _GEN_44 $end
   $var wire 2 r io_action_at_Qmax $end
   $var wire 5 t _GEN_11 $end
   $var wire 21 v io_Q_s_a $end
   $var wire 21 x _GEN_26 $end
   $var wire 1 "$ _GEN_32 $end
   $var wire 5 "* _GEN_20 $end
   $var wire 5 "/ _GEN_14 $end
   $var wire 1 "0 reset $end
   $var wire 1 "5 _GEN_76 $end
   $var wire 1 "8 _GEN_0 $end
   $var wire 5 "9 _GEN_9 $end
   $var wire 1 ": max4 $end
   $var wire 1 "; _GEN_82 $end
   $var wire 1 "= _GEN_64 $end
   $var wire 1 "A _GEN_58 $end
   $var wire 21 "E _GEN_3 $end
   $var wire 1 "F index_of_Q_max $end
   $var wire 21 "G _GEN_85 $end
   $var wire 21 "I Q_s_Act0 $end
   $var wire 1 "N _GEN_70 $end
   $var wire 5 "O _GEN_79 $end
   $var wire 21 "P Q_s_Act3 $end
   $var wire 1 "Q _GEN_46 $end
   $var wire 1 "V _GEN_67 $end
   $var wire 21 "W _GEN_6 $end
   $var wire 1 "X _GEN_52 $end
   $var wire 5 "\ _GEN_73 $end
   $var wire 5 "a _GEN_31 $end
   $var wire 1 "c _GEN_40 $end
   $var wire 21 "g _GEN_55 $end
   $var wire 5 "n _GEN_28 $end
   $var wire 1 "o _GEN_34 $end
   $var wire 21 "q _GEN_61 $end
   $var wire 1 "r _GEN_49 $end
   $var wire 21 "s _GEN_13 $end
   $var wire 5 "u _GEN_22 $end
   $var wire 1 "w _GEN_16 $end
   $var wire 21 #" _GEN_43 $end
   $var wire 6 #% state $end
   $var wire 5 #' _GEN_37 $end
   $var wire 1 #) _GEN_19 $end
   $var wire 1 #- _GEN_25 $end
   $var wire 1 #5 _GEN_5 $end
   $var wire 1 #8 _GEN_10 $end
   $var wire 21 #9 io_Q_prime_max $end
   $var wire 21 #: io_Q_updated $end
   $var wire 21 #D _GEN_69 $end
   $var wire 6 #F io_state $end
   $var wire 1 #K max41 $end
   $var wire 5 #L _GEN_8 $end
   $var wire 1 #O _GEN_60 $end
   $var wire 1 #P io_wrEna $end
   $var wire 5 #Q _GEN_81 $end
   $var wire 1 #S _GEN_75 $end
   $var wire 5 #T _GEN_57 $end
   $var wire 1 #U _GEN_84 $end
   $var wire 1 #V _GEN_42 $end
   $var wire 1 #W _GEN_78 $end
   $var wire 5 #] _GEN_63 $end
   $var wire 1 #b _GEN_2 $end
   $var wire 21 #f Q_s_Act2 $end
   $var wire 21 #l _GEN_51 $end
   $var wire 1 #m _GEN_66 $end
   $var wire 1 #n _GEN_24 $end
   $var wire 1 #q _GEN_72 $end
   $var wire 21 #s _GEN_30 $end
   $var wire 5 #t _GEN_39 $end
   $var wire 5 #u _GEN_45 $end
   $var wire 1 #| _GEN_54 $end
   $var wire 1 #~ _GEN_12 $end
   $var wire 1 $! _GEN_27 $end
   $var wire 1 $* _GEN_33 $end
   $var wire 1 $+ _GEN_48 $end
   $var wire 1 $, _GEN_15 $end
   $var wire 1 $- _GEN_83 $end
   $var wire 1 $/ _GEN_36 $end
   $var wire 1 $4 _GEN_21 $end
   $var wire 2 $6 io_act $end
   $var wire 5 $7 _GEN_1 $end
    $scope module max41 $end
     $var wire 1 ! clock $end
     $var wire 21 G io_Q_prime_max $end
     $var wire 21 K io_ins1 $end
     $var wire 1 "% reset $end
     $var wire 21 "2 ins_0 $end
     $var wire 21 "M ins_3 $end
     $var wire 1 "i _T $end
     $var wire 21 "k io_ins0 $end
     $var wire 21 "x ins_2 $end
     $var wire 21 "z io_ins3 $end
     $var wire 21 #Y io_ins2 $end
     $var wire 21 $1 ins_1 $end
    $upscope $end
    $scope module Q_s_Act0 $end
      $scope module _T_42 $end
       $var wire 5 " addr $end
       $var wire 1 $ pipeline_ren_0 $end
       $var wire 5 S pipeline_raddr_0 $end
       $var wire 1 s en $end
       $var wire 21 "4 data $end
       $var wire 1 $5 clk $end
      $upscope $end
      $scope module _T_22 $end
       $var wire 1 4 pipeline_ren_0 $end
       $var wire 5 "j pipeline_raddr_0 $end
       $var wire 5 "{ addr $end
       $var wire 1 #$ clk $end
       $var wire 1 #< en $end
       $var wire 21 $$ data $end
      $upscope $end
      $scope module _T_2 $end
       $var wire 1 ? en $end
       $var wire 5 H pipeline_raddr_0 $end
       $var wire 21 d data $end
       $var wire 1 e clk $end
       $var wire 1 #d pipeline_ren_0 $end
       $var wire 5 $' addr $end
      $upscope $end
      $scope module _T_30 $end
       $var wire 21 D data $end
       $var wire 1 T clk $end
       $var wire 1 #\ pipeline_ren_0 $end
       $var wire 5 #e addr $end
       $var wire 5 #w pipeline_raddr_0 $end
       $var wire 1 $9 en $end
      $upscope $end
      $scope module _T_6 $end
       $var wire 1 M en $end
       $var wire 1 U pipeline_valid_0 $end
       $var wire 21 c pipeline_data_0 $end
       $var wire 1 q clk $end
       $var wire 1 "@ mask $end
       $var wire 5 #1 addr $end
       $var wire 5 #^ pipeline_addr_0 $end
       $var wire 1 #` valid $end
       $var wire 21 $3 data $end
      $upscope $end
      $scope module _T_4 $end
       $var wire 1 X en $end
       $var wire 5 "! addr $end
       $var wire 1 "- pipeline_ren_0 $end
       $var wire 5 "S pipeline_raddr_0 $end
       $var wire 21 "v data $end
       $var wire 1 #, clk $end
      $upscope $end
      $scope module _T_20 $end
       $var wire 5 ^ addr $end
       $var wire 1 ` pipeline_valid_0 $end
       $var wire 21 "B pipeline_data_0 $end
       $var wire 21 "d data $end
       $var wire 1 #B en $end
       $var wire 1 $& valid $end
       $var wire 5 $2 pipeline_addr_0 $end
       $var wire 1 $; mask $end
       $var wire 1 $< clk $end
      $upscope $end
      $scope module _T_40 $end
       $var wire 1 y en $end
       $var wire 1 "6 clk $end
       $var wire 1 #* pipeline_ren_0 $end
       $var wire 5 #/ addr $end
       $var wire 5 #? pipeline_raddr_0 $end
       $var wire 21 $8 data $end
      $upscope $end
      $scope module _T_38 $end
       $var wire 1 } pipeline_ren_0 $end
       $var wire 1 ~ clk $end
       $var wire 5 "< addr $end
       $var wire 21 #. data $end
       $var wire 5 #@ pipeline_raddr_0 $end
       $var wire 1 $> en $end
      $upscope $end
      $scope module _T_44 $end
       $var wire 1 "# en $end
       $var wire 1 "> clk $end
       $var wire 5 "C addr $end
       $var wire 5 "] pipeline_raddr_0 $end
       $var wire 1 "t pipeline_ren_0 $end
       $var wire 21 #G data $end
      $upscope $end
    $upscope $end
    $scope module Q_s_Act1 $end
      $scope module _T_9 $end
       $var wire 1 # pipeline_ren_0 $end
       $var wire 1 F en $end
       $var wire 5 "3 addr $end
       $var wire 5 "h pipeline_raddr_0 $end
       $var wire 21 #A data $end
       $var wire 1 #y clk $end
      $upscope $end
      $scope module _T_11 $end
       $var wire 21 ' pipeline_data_0 $end
       $var wire 1 5 mask $end
       $var wire 1 > pipeline_valid_0 $end
       $var wire 1 p clk $end
       $var wire 5 "+ addr $end
       $var wire 5 "| pipeline_addr_0 $end
       $var wire 21 #( data $end
       $var wire 1 #2 valid $end
       $var wire 1 #z en $end
      $upscope $end
      $scope module _T_24 $end
       $var wire 1 W clk $end
       $var wire 5 "( pipeline_raddr_0 $end
       $var wire 1 "Z en $end
       $var wire 5 "m addr $end
       $var wire 1 #j pipeline_ren_0 $end
       $var wire 21 #x data $end
      $upscope $end
      $scope module _T_32 $end
       $var wire 21 | data $end
       $var wire 1 "1 pipeline_ren_0 $end
       $var wire 5 #7 pipeline_raddr_0 $end
       $var wire 5 #a addr $end
       $var wire 1 #c en $end
       $var wire 1 $% clk $end
      $upscope $end
    $upscope $end
    $scope module Q_s_Act2 $end
      $scope module _T_14 $end
       $var wire 5 + pipeline_raddr_0 $end
       $var wire 1 Q en $end
       $var wire 1 Z pipeline_ren_0 $end
       $var wire 1 w clk $end
       $var wire 5 "_ addr $end
       $var wire 21 #X data $end
      $upscope $end
      $scope module _T_34 $end
       $var wire 1 . pipeline_ren_0 $end
       $var wire 21 _ data $end
       $var wire 5 "b pipeline_raddr_0 $end
       $var wire 1 ## en $end
       $var wire 1 #4 clk $end
       $var wire 5 $# addr $end
      $upscope $end
      $scope module _T_16 $end
       $var wire 21 = data $end
       $var wire 1 B en $end
       $var wire 1 "~ mask $end
       $var wire 1 #C clk $end
       $var wire 5 #I pipeline_addr_0 $end
       $var wire 1 #N pipeline_valid_0 $end
       $var wire 5 #v addr $end
       $var wire 1 $( valid $end
       $var wire 21 $: pipeline_data_0 $end
      $upscope $end
      $scope module _T_26 $end
       $var wire 1 z en $end
       $var wire 5 ". pipeline_raddr_0 $end
       $var wire 5 "R addr $end
       $var wire 1 #! pipeline_ren_0 $end
       $var wire 21 #[ data $end
       $var wire 1 $) clk $end
      $upscope $end
    $upscope $end
    $scope module max4 $end
     $var wire 21 0 ins_2 $end
     $var wire 21 : io_ins3 $end
     $var wire 21 V io_Q_prime_max $end
     $var wire 21 \ io_ins0 $end
     $var wire 21 { ins_1 $end
     $var wire 1 "7 clock $end
     $var wire 21 "U io_ins2 $end
     $var wire 1 "} _T $end
     $var wire 21 #6 ins_0 $end
     $var wire 1 #= reset $end
     $var wire 21 #M ins_3 $end
     $var wire 21 #h io_ins1 $end
    $upscope $end
    $scope module Q_s_Act3 $end
      $scope module _T_28 $end
       $var wire 1 7 en $end
       $var wire 1 E pipeline_ren_0 $end
       $var wire 5 O pipeline_raddr_0 $end
       $var wire 5 "L addr $end
       $var wire 1 #3 clk $end
       $var wire 21 #H data $end
      $upscope $end
      $scope module _T_18 $end
       $var wire 21 8 data $end
       $var wire 1 u pipeline_ren_0 $end
       $var wire 5 "& pipeline_raddr_0 $end
       $var wire 1 "Y clk $end
       $var wire 5 #Z addr $end
       $var wire 1 $. en $end
      $upscope $end
      $scope module _T_36 $end
       $var wire 21 R data $end
       $var wire 1 "H en $end
       $var wire 1 "J clk $end
       $var wire 5 "` pipeline_raddr_0 $end
       $var wire 5 #i addr $end
       $var wire 1 #p pipeline_ren_0 $end
      $upscope $end
    $upscope $end
    $scope module index_of_Q_max $end
     $var wire 21 9 ins_3 $end
     $var wire 21 ; io_ins1 $end
     $var wire 21 [ ins_0 $end
     $var wire 2 f io_action_at_Qmax $end
     $var wire 21 g io_Q_max_at_state_s $end
     $var wire 1 k reset $end
     $var wire 21 ") io_ins3 $end
     $var wire 21 "T ins_2 $end
     $var wire 21 "^ io_ins0 $end
     $var wire 21 #J io_ins2 $end
     $var wire 1 #R clock $end
     $var wire 21 #g ins_1 $end
     $var wire 1 #r _T $end
    $upscope $end
  $upscope $end
$upscope $end
$enddefinitions $end
$dumpvars
b000000000000000000000 "W
0o
0"c
0$%
0"1
b000000000000000000000 #f
b000000000000000000000 R
b000000000000000000000 =
b00000 #a
0#W
b000000000000000000000 "d
b00000 "9
b000000 "?
b000000000000000000000 "2
b000000000000000000000 c
b000000000000000000000 N
b00 #;
0~
0"r
1$9
0#S
0a
0L
0$4
0"@
0#!
0/
b000000000000000000000 $$
0#O
0$0
0]
0"Q
0#2
b000000000000000000000 ""
b000000000000000000000 "s
b000000000000000000000 #"
0#b
0$.
b00000 "n
0p
0#E
0$&
b00000 "<
b000000000000000000000 "g
b000000000000000000000 #H
0>
b000000000000000000000 Y
b00000 "j
1#c
0"}
0l
b000000000000000000000 #D
b00000 (
0#,
0$"
0#$
b000000000000000000000 0
b00 "[
0`
b000000000000000000000 "B
b000000000000000000000 ,
b000000000000000000000 K
b00000 i
0?
b00000 #Z
0#m
1"#
b000000000000000000000 #h
0"o
0#P
b00000 "\
b000000000000000000000 "U
b000000000000000000000 #6
0"=
b00000 "*
b000000000000000000000 \
0#~
b00000 "u
b00000 $7
b00000 H
b00000 "m
b00000 3
b00000 "C
0$-
0Z
0"N
b00000 "&
b000000000000000000000 "4
b000000 ",
b000000000000000000000 m
b000000000000000000000 ;
0k
0$!
b00000 #i
0"-
0"~
b00000 #L
b00000 )
b00000 t
0J
b00000 #e
b000000000000000000000 #s
0#p
b00000 "|
b00000 #]
0$<
0#>
b000000000000000000000 #A
b000000000000000000000 |
b000000000000000000000 _
b000000 #_
b000000000000000000000 "q
b00000 #'
b000000000000000000000 $3
b00 f
0"Y
b000000000000000000000 x
b000000 -
b000000000000000000000 [
0#`
0n
0<
b000000000000000000000 $1
0#\
0U
0#*
0M
0#
b000000000000000000000 "k
b000000000000000000000 8
1##
b000 "e
b00000 "{
0#o
0"y
0}
0h
0#R
b000000 b
0$;
0#=
b000000000000000000000 {
0#k
b000000000000000000000 "p
0"X
0#N
0$/
b00000 #w
b00000 "(
0";
b000000 #}
b00000 "
0X
0#-
0"7
0C
0&
b000000000000000000000 #l
b000000000000000000000 9
b000000000 $=
0#z
0$)
17
b000000000000000000000 "M
b000000000000000000000 #.
0"J
0#+
1z
0#n
b00000 $'
b00000 #1
b000000000000000000000 "^
b000000000000000000000 "I
0"F
b00000 "3
05
b000000000000000000000 g
b00000 #v
0":
0F
b00000 S
b000000000000000000000 D
b000000000000000000000 '
0W
b00000 O
0%
b00000 "_
b00000 #@
b00000 2
0#K
0$,
b000000000000000000000 #9
b000000 #F
b000000000000000000000 "P
0"8
b000000000000000000000 :
0#y
b000000000000000000000 #g
06
0#d
b00000 #Q
0"f
0$(
b000000000000000000000 "T
b000000000000000000000 #J
b000000 "D
b000000 #%
b00000 $2
b00000 "S
b00000 "!
0!
b00 $6
b000000000 j
1y
0"w
1$>
0Q
0#&
b00000 ^
0I
04
b000000000 "l
0w
0"V
1#<
0E
b00000 #u
0"$
b000000 #{
0#V
b000000000000000000000 "x
b000000000000000000000 #Y
b000000000000000000000 $:
b00000 "b
b000000000000000000000 ")
1s
b00000 #T
0#|
0u
0$+
0#5
0"i
b000000000000000000000 #M
b00000 1
b00000 #7
b000000000000000000000 V
0q
b00000 "R
b00 r
0T
b000000000000000000000 "K
0#)
b00 @
0#B
b00000 #/
0e
0P
b000000000000000000000 "G
b000000000000000000000 #(
b00000 +
b000000000000000000000 #G
1"Z
b00000 #t
0#r
0#j
0"t
0#U
b000000000000000000000 #X
b00000 "a
0#8
b000000000000000000000 "E
b00000 "L
b00000 "/
b00000 $#
0"%
b000000000000000000000 v
b00000 "]
0$*
0#4
0">
b00000 "+
0B
0"6
b000000000 "'
1"H
b000000000000000000000 #x
b00000 *
b00000 "O
0#C
b000000000000000000000 "z
b000000000000000000000 #[
0"0
b000000000000000000000 d
b000000000000000000000 G
0#q
0.
b00000 "h
b00000 #I
b000000000000000000000 "v
b000000000000000000000 $8
0$5
b00000 #^
b000000000000000000000 #:
0"A
b00000 "`
b00000 ".
0#3
0A
0"5
0$
b00000 #?
b000000 #0
$end
#0
1#r
1#U
1#V
15
1"%
1"X
16
1#O
1"o
b000000001 "'
1#5
1]
b000000001 "l
1A
1"5
1$"
1"~
1#-
1?
1"0
1k
1$;
1l
1#=
1#)
b000000101 $=
1P
1"@
1n
#1
1<
1#j
1"t
14
1}
1h
1"Y
1#4
1">
1"6
1$,
1#b
1#y
1#d
1.
1"Q
1&
1#*
1w
1E
1#,
1q
1T
1#C
1"y
1$
1#q
1#\
1$5
1"A
1"$
1#$
1";
1~
1#m
1a
1L
1/
1#3
1"=
1#R
1$+
1"7
1e
1#~
1$)
1#+
1"J
1#|
1p
1!
1"c
1$%
1"1
1W
1#p
1$<
1$4
1#!
#6
0"A
0<
0"$
0h
0#$
0";
0~
0"Y
0#m
0a
0L
0/
0#3
0"=
0#4
0">
0#R
0"6
0$+
0"7
0$,
0#~
0e
0#b
0#y
0"Q
0&
0w
0$)
0#+
0"J
0#|
0p
0#,
0q
0!
0T
0#C
0"c
0$%
0"y
0W
0$<
0$4
0#q
0$5
#11
1"A
1<
1"$
1h
1#$
1";
1~
1"Y
1#m
1a
1L
1/
1#3
1"=
1#4
1">
1#R
1"6
1$+
1"7
1$,
1#~
1e
1#b
1#y
1"Q
1&
1w
1$)
1#+
1"J
1#|
1p
1#,
1q
1!
1T
1#C
1"c
1$%
1"y
1W
1$<
1$4
1#q
1$5
#16
0"A
0<
0"$
0h
0#$
0";
0~
0"Y
0#m
0a
0L
0/
0#3
0"=
0#4
0">
0#R
0"6
0$+
0"7
0$,
0#~
0e
0#b
0#y
0"Q
0&
0w
0$)
0#+
0"J
0#|
0p
0#,
0q
0!
0T
0#C
0"c
0$%
0"y
0W
0$<
0$4
0#q
0$5
#21
1"A
1<
1"$
1h
1#$
1";
1~
1"Y
1#m
1a
1L
1/
1#3
1"=
1#4
1">
1#R
1"6
1$+
1"7
1$,
1#~
1e
1#b
1#y
1"Q
1&
1w
1$)
1#+
1"J
1#|
1p
1#,
1q
1!
1T
1#C
1"c
1$%
1"y
1W
1$<
1$4
1#q
1$5
#26
0"A
0<
0"$
0h
0#$
0";
0~
0"Y
0#m
0a
0L
0/
0#3
0"=
0#4
0">
0#R
0"6
0$+
0"7
0$,
0#~
0e
0#b
0#y
0"Q
0&
0w
0$)
0#+
0"J
0#|
0p
0#,
0q
0!
0T
0#C
0"c
0$%
0"y
0W
0$<
0$4
0#q
0$5
#31
1"A
1<
1"$
1h
1#$
1";
1~
1"Y
1#m
1a
1L
1/
1#3
1"=
1#4
1">
1#R
1"6
1$+
1"7
1$,
1#~
1e
1#b
1#y
1"Q
1&
1w
1$)
1#+
1"J
1#|
1p
1#,
1q
1!
1T
1#C
1"c
1$%
1"y
1W
1$<
1$4
1#q
1$5
#36
0"A
0<
0"$
0h
0#$
0";
0~
0"Y
0#m
0a
0L
0/
0#3
0"=
0#4
0">
0#R
0"6
0$+
0"7
0$,
0#~
0e
0#b
0#y
0"Q
0&
0w
0$)
0#+
0"J
0#|
0p
0#,
0q
0!
0T
0#C
0"c
0$%
0"y
0W
0$<
0$4
0#q
0$5
#41
1"A
1<
1"$
1h
1#$
1";
1~
1"Y
1#m
1a
1L
1/
1#3
1"=
1#4
1">
1#R
1"6
1$+
1"7
1$,
1#~
1e
1#b
1#y
1"Q
1&
1w
1$)
1#+
1"J
1#|
1p
1#,
1q
1!
1T
1#C
1"c
1$%
1"y
1W
1$<
1$4
1#q
1$5
#46
0<
b000000000111010110000 "W
0"%
0h
b000000000111010110000 #l
b000000000111010110000 #:
0"Y
1#n
1M
b000000000111010110000 "p
0#4
0">
0"6
0$,
1"8
0#b
0A
b000000000111010110000 ,
b000000000111010110000 "d
0#y
1X
0"Q
0&
0w
b000000000111010110000 =
0$"
0#,
0q
1#`
0T
0#C
0"0
0k
0"y
0#=
b000000000111010110000 "G
b000000000111010110000 #(
0#q
0$5
b000000000111010110000 #"
0"A
0"$
1#k
1J
0#$
0";
0~
0#m
0a
0L
1#P
0/
0#3
0"=
b000000000111010110000 N
b000000000111010110000 "q
0#R
b000000000111010110000 $3
0$+
0"7
0e
0#~
b000000000111010110000 Y
0$)
0#+
b000000000111010110000 x
0"J
0#|
0p
0!
b000000000111010110000 #D
0"c
0$%
0W
0$<
1"r
0$4
#51
1<
b000000000111010110000 "B
1h
b000000000111010110000 $8
b000000000111010110000 "v
1"Y
1#4
1">
1"6
b000000000111010110000 d
b000000000111010110000 G
1$,
b000000000111010110000 #6
b000000000111010110000 #.
1#b
b000000000111010110000 "2
1#y
b000000000111010110000 #G
1"Q
1&
1w
b000000000111010110000 "4
1"}
1#,
b000000000111010110000 "K
1q
b000000000111010110000 \
1T
1#C
b000000000111010110000 $$
b000000000111010110000 "E
b000000000111010110000 V
1"y
b000000000111010110000 9
1#q
b000000000111010110000 ;
1$5
b000000000111010110000 "^
1"A
1"$
b000000000111010110000 g
b000000000111010110000 #9
1#$
1";
1~
1#m
1a
1L
1/
1#3
1"=
b000000000111010110000 c
b000000000111010110000 #g
1#R
1$+
b000000000111010110000 #J
b000000000111010110000 "T
1"i
1"7
1e
1#~
b000000000111010110000 ""
b000000000111010110000 "k
b000000000111010110000 v
b000000000111010110000 D
1$)
b000000000111010110000 "g
b000000000111010110000 '
1#+
1"J
1#|
1p
1"-
b000000000111010110000 [
1!
1U
b000000000111010110000 $:
1"c
1$%
b000000000111010110000 ")
1W
1$<
1$4
#56
0<
1$!
b00001 "_
b000000000000001000011 "W
0h
b000000000000001000011 #l
b00001 "n
b000000000000001000011 #:
0"Y
b00001 "<
0M
b000000000000001000011 "p
0#4
0">
0"6
b00001 "!
0$,
1I
0#b
b000000000000001000011 ,
b000000000000001000011 "d
b00001 "O
b000001 #0
0#y
0X
0"Q
0&
1#2
0w
1$*
b000000000000001000011 =
0#,
b000000000000000000000 "K
0q
b00001 #u
0#`
0T
0?
0#C
b00001 "
0"y
b00001 #Z
b000000000000001000011 "G
b000000000000001000011 #(
b00001 "*
0#q
0P
b00001 #T
0$5
b000000000000001000011 #"
0"A
0"$
b00001 $7
0J
0"X
b00001 "C
0#$
0";
0~
0#m
0a
0L
0/
0#3
0"=
b000000000000001000011 N
b000000000000001000011 "q
0#R
b00001 1
0$+
1F
b000000000000001000011 $3
0"7
0e
0#~
b00001 #i
b00001 #a
1"V
b00001 #/
b00001 t
b000001 #F
b00001 $'
b00001 "3
b000000000000000000000 v
1#z
b00001 #e
b000000000000001000011 Y
b00001 #]
0$)
b000000000000000000000 "g
0#+
b000000000000001000011 x
0"J
0#|
0p
b00001 )
b00001 $#
0!
b000000000000001000011 #D
0"c
0$%
b00001 #'
0W
0$<
0"r
0$4
0n
#61
1<
b00001 #@
b000000000000001000011 "B
1h
b00001 S
b000000000000000000000 $8
b000000000000000000000 "v
1"Y
b00001 #Q
1#4
1">
b00001 "S
1"6
b000000000000000000000 d
b000000000000001000011 #h
b000000000000000000000 G
b00001 2
1$,
b00001 *
b000000000000000000000 #.
b000000000000001000011 {
b00001 ^
1#b
b000000000000000000000 "2
1#y
0#d
b000000000000000000000 #G
1"Q
1&
1w
b000000000000000000000 "4
b00001 "h
b00001 (
b00001 "`
1#,
1q
1T
1#C
b00001 "b
b000000000000000000000 "E
b00001 #w
1"y
b000000000000000000000 9
b00001 "\
1#q
b000000000000000000000 ;
1$5
b00001 #?
b00001 3
b000000000000000000000 "^
1"A
1"$
b000000000000000000000 g
b00001 "u
1#$
1";
b00001 i
b00001 "&
1#m
1a
1L
1~
1/
1#3
1"=
b000000000000001000011 c
b000000000000000000000 #g
1#R
1$+
b000000000000000000000 #J
b000000000000000000000 "T
0"i
1"7
1e
1#~
b00001 H
b00001 #L
b00001 #7
b00001 +
b000000000000000000000 "k
b00001 "9
b000000000000001000011 #x
b00001 #1
b000000000000000000000 D
1$)
b000000000000001000011 '
1#+
1"J
1#|
1p
0"-
b00001 #t
b000000000000000000000 [
1>
b00001 "a
1!
b000001 #%
b00001 "/
b00001 #v
0U
b000000000000001000011 $:
1"c
1$%
1#
b000000000000000000000 ")
1W
1$<
1$4
b00001 "]
b00001 "+
#66
1Q
0<
0$!
b00010 "_
b000000000000000111100 "W
1#8
0h
b000000000000000111100 #l
b00010 "n
b000000000000000111100 #:
0"Y
b00010 "<
0#n
b000000000000000111100 "p
0#4
0">
0"6
b00010 "!
0$,
0I
0#b
b000000000000000111100 ,
b000000000000000111100 "d
b00010 "O
b000010 #0
0#y
1C
1$(
0"Q
0&
0#2
0w
0$*
b000000000000000111100 =
0#,
0q
b00010 #u
0T
1"w
0#C
b00010 "
0"y
b00010 #Z
b000000000000000111100 "G
b000000000000000111100 #(
b00010 "*
0#q
b00010 #T
0$5
b000000000000000111100 #"
0"A
0"$
b00010 $7
b00010 "C
0#$
0";
0~
0#m
0a
0L
0/
0#3
0"=
b000000000000000111100 N
b000000000000000111100 "q
0#R
b00010 1
0$+
0F
b000000000000000111100 $3
0"7
0e
0#~
b00010 #i
b00010 #a
0"V
1"N
b00010 #/
b00010 t
1$/
1B
b000010 #F
b00010 $'
b00010 "3
0#z
b00010 #e
b000000000000000111100 Y
b00010 #]
0$)
0#+
b000000000000000111100 x
0"J
0#|
0p
b00010 )
b00010 $#
0!
b000000000000000111100 #D
0"c
0$%
b00010 #'
0W
0$<
1#S
0$4
0#)
#71
1<
b00010 #@
b000000000000000111100 "B
1h
b00010 S
1"Y
b00010 #Q
b00001 $2
1#4
1">
b00010 "S
1"6
b00010 2
1$,
b00010 *
b00010 ^
1#b
1#y
1"Q
1&
1w
1Z
b00001 #^
b00001 #I
b00010 "h
b00010 (
b00010 "`
1#,
1q
1T
1#C
b00010 "b
b00010 #w
1"y
b00010 "\
1#q
1$5
b00010 #?
b00010 3
1"A
1"$
b00010 "u
1#$
1";
b00010 i
b00010 "&
1#m
1a
1L
1~
1/
1#3
1"=
b000000000000000111100 c
1#R
1$+
1"7
1e
1#~
b00010 H
b00010 #L
b00010 #7
b00010 +
b00010 "9
1#N
b00010 #1
b00001 "|
1$)
b000000000000000111100 '
1#+
1"J
1#|
1p
b00010 #t
0>
b00010 "a
1!
b000010 #%
b00010 "/
b00010 #v
b000000000000000111100 $:
1"c
1$%
0#
1W
1$<
1$4
b00010 "]
b00010 "+
#76
0Q
0<
b00011 "_
b111111101100100101111 "W
0#8
0h
b111111101100100101111 #l
1#W
b00011 "n
b111111101100100101111 #:
0"Y
b00011 "<
1#n
b111111101100100101111 "p
0#4
0">
0"6
b00011 "!
0$,
0#b
1$.
b111111101100100101111 ,
b111111101100100101111 "d
b000011 #0
b00011 "O
1$&
0#y
0C
0$(
0"Q
0&
0w
b111111101100100101111 =
0#,
0q
b00011 #u
0T
0"w
0#C
b00011 "
0"y
b00011 #Z
b111111101100100101111 "G
b111111101100100101111 #(
b00011 "*
0#q
b00011 #T
0$5
b111111101100100101111 #"
0"A
0"$
b00011 $7
b00011 "C
0#$
0";
0~
0#m
0a
0L
0/
0#3
0"=
b111111101100100101111 N
b111111101100100101111 "q
0#R
b00011 1
0$+
b111111101100100101111 $3
0"7
0e
0#~
b00011 #i
b00011 #a
1$-
0"N
b00011 #/
b00011 t
0$/
0B
b000011 #F
b00011 $'
b00011 "3
b00011 #e
b111111101100100101111 Y
b00011 #]
0$)
0#+
b111111101100100101111 x
0"J
0#|
0p
b00011 )
b00011 $#
1#B
0!
b111111101100100101111 #D
0"c
0$%
b00011 #'
0W
0$<
1"r
0#S
1#)
0$4
1n
#81
1<
b00011 #@
b111111101100100101111 "B
1h
b00011 S
1"Y
b00011 #Q
b00010 $2
1#4
1">
b00011 "S
1"6
b00011 2
1$,
b00011 *
b00011 ^
1#b
1u
1`
1#y
1"Q
1&
1w
0Z
b00010 #^
b00010 #I
b00011 "h
b00011 (
b00011 "`
1#,
1q
1T
1#C
b00011 "b
b00011 #w
1"y
b00011 "\
1#q
1$5
b00011 #?
b00011 3
1"A
1"$
b00011 "u
1#$
1";
b00011 i
b00011 "&
1#m
1a
1L
1~
1/
1#3
1"=
b111111101100100101111 c
1#R
1$+
1"7
1e
1#~
b00011 H
b00011 #L
b00011 #7
b00011 +
b00011 "9
0#N
b00011 #1
b00010 "|
1$)
b111111101100100101111 '
1#+
1"J
1#|
1p
b00011 #t
b00011 "a
1!
b000011 #%
b00011 "/
b00011 #v
b111111101100100101111 $:
1"c
1$%
1W
1$<
1$4
b00011 "]
b00011 "+
