test_run_dir/LFSRwave1555278844/LFSR.vcd
$date
2021-01-22T17:02+0000
$end
$version
0.2
$end
$comment

$end
$timescale 1ns  $end
$scope module LFSR $end
 $var wire 2 / _T $end
 $var wire 1 7 MaxPeriodFibonacciLFSR_1 $end
 $var wire 1 D MaxPeriodFibonacciLFSR $end
 $var wire 10 a io_rand2 $end
 $var wire 1 d clock $end
 $var wire 1 "$ reset $end
 $var wire 10 "% io_rand1 $end
  $scope module MaxPeriodFibonacciLFSR_1 $end
   $var wire 1 % io_seed_bits_4 $end
   $var wire 1 & _GEN_3 $end
   $var wire 1 ( state_1 $end
   $var wire 1 ) io_out_8 $end
   $var wire 1 * reset $end
   $var wire 1 , io_seed_bits_7 $end
   $var wire 1 - _GEN_6 $end
   $var wire 1 3 state_4 $end
   $var wire 1 4 state_7 $end
   $var wire 1 5 _GEN_18 $end
   $var wire 1 ; _GEN_12 $end
   $var wire 1 < io_out_1 $end
   $var wire 1 = io_increment $end
   $var wire 1 ? _GEN_15 $end
   $var wire 1 F io_seed_bits_0 $end
   $var wire 1 H io_seed_bits_9 $end
   $var wire 1 I _GEN_8 $end
   $var wire 1 J io_out_4 $end
   $var wire 1 K io_seed_bits_3 $end
   $var wire 1 L state_0 $end
   $var wire 1 M _GEN_2 $end
   $var wire 1 P io_out_7 $end
   $var wire 1 S state_9 $end
   $var wire 1 V _GEN_14 $end
   $var wire 1 Y io_seed_bits_6 $end
   $var wire 1 Z state_3 $end
   $var wire 1 [ _GEN_5 $end
   $var wire 1 ] state_6 $end
   $var wire 1 ^ _GEN_17 $end
   $var wire 1 b io_out_6 $end
   $var wire 1 c _GEN_11 $end
   $var wire 1 i io_seed_bits_5 $end
   $var wire 1 k _GEN_4 $end
   $var wire 1 m io_out_0 $end
   $var wire 1 o io_out_9 $end
   $var wire 1 q state_5 $end
   $var wire 1 r io_seed_bits_8 $end
   $var wire 1 s _GEN_7 $end
   $var wire 1 v io_out_3 $end
   $var wire 1 w clock $end
   $var wire 1 | io_seed_bits_2 $end
   $var wire 1 } _GEN_1 $end
   $var wire 1 ~ state_8 $end
   $var wire 1 "! state_2 $end
   $var wire 1 "" _GEN_13 $end
   $var wire 1 "& _GEN_16 $end
   $var wire 1 "* io_out_2 $end
   $var wire 1 "+ io_seed_valid $end
   $var wire 1 "- _GEN_10 $end
   $var wire 1 "0 io_seed_bits_1 $end
   $var wire 1 "1 _GEN_0 $end
   $var wire 1 "2 _GEN_19 $end
   $var wire 1 "3 _GEN_9 $end
   $var wire 1 "5 io_out_5 $end
  $upscope $end
  $scope module MaxPeriodFibonacciLFSR $end
   $var wire 1 ! _GEN_19 $end
   $var wire 1 " io_out_1 $end
   $var wire 1 # _GEN_4 $end
   $var wire 1 $ _GEN_10 $end
   $var wire 1 ' io_seed_bits_3 $end
   $var wire 1 + reset $end
   $var wire 1 . io_seed_bits_6 $end
   $var wire 1 0 _GEN_7 $end
   $var wire 1 1 state_1 $end
   $var wire 1 2 io_seed_valid $end
   $var wire 1 6 state_4 $end
   $var wire 1 8 _GEN_1 $end
   $var wire 1 9 state_7 $end
   $var wire 1 : _GEN_18 $end
   $var wire 1 > _GEN_12 $end
   $var wire 1 @ io_out_3 $end
   $var wire 1 A io_out_6 $end
   $var wire 1 B _GEN_9 $end
   $var wire 1 C _GEN_15 $end
   $var wire 1 E io_seed_bits_8 $end
   $var wire 1 G _GEN_0 $end
   $var wire 1 N io_out_9 $end
   $var wire 1 O _GEN_3 $end
   $var wire 1 Q io_out_0 $end
   $var wire 1 R io_seed_bits_2 $end
   $var wire 1 T io_increment $end
   $var wire 1 U io_seed_bits_5 $end
   $var wire 1 W state_9 $end
   $var wire 1 X _GEN_6 $end
   $var wire 1 \ state_0 $end
   $var wire 1 _ state_3 $end
   $var wire 1 ` _GEN_14 $end
   $var wire 1 e state_6 $end
   $var wire 1 f _GEN_17 $end
   $var wire 1 g io_out_8 $end
   $var wire 1 h io_out_2 $end
   $var wire 1 j io_seed_bits_4 $end
   $var wire 1 l _GEN_11 $end
   $var wire 1 n _GEN_5 $end
   $var wire 1 p _GEN_8 $end
   $var wire 1 t io_seed_bits_7 $end
   $var wire 1 u io_out_5 $end
   $var wire 1 x clock $end
   $var wire 1 y state_5 $end
   $var wire 1 z io_seed_bits_1 $end
   $var wire 1 { _GEN_2 $end
   $var wire 1 "# state_8 $end
   $var wire 1 "' io_out_4 $end
   $var wire 1 "( state_2 $end
   $var wire 1 ") _GEN_13 $end
   $var wire 1 ", io_seed_bits_9 $end
   $var wire 1 ". _GEN_16 $end
   $var wire 1 "/ io_out_7 $end
   $var wire 1 "4 io_seed_bits_0 $end
  $upscope $end
$upscope $end
$enddefinitions $end
$dumpvars
0X
0C
0""
0&
0o
0R
0"1
0V
0m
0g
05
0")
0~
0L
0D
0"#
0x
0[
0F
0)
0z
0r
0]
0H
0@
0+
0W
0%
0v
0p
0>
0"2
06
0!
0"4
0l
0O
0:
0".
0{
0f
0Q
0I
04
0"(
0`
0"*
0w
0b
0E
00
0"$
0(
0?
0u
0;
0Z
0q
0i
b0000000000 "%
0"3
07
0"
0k
0N
09
0"-
0e
0P
0"/
03
0"'
0|
0J
0-
0"+
0c
01
0t
0_
0B
0"!
0n
0Y
0<
0'
b0000000000 a
0S
0j
0U
0M
08
0",
0#
0d
02
0"0
0}
0h
0K
0.
b00 /
0y
0\
0G
1=
0"&
0*
1T
0^
0s
0A
0,
0"5
0$
$end
#0
1"$
1*
1+
#1
1Q
1}
b0000000001 "%
1w
1x
b0000000001 a
1L
b01 /
1\
1c
1d
18
1l
1m
#6
0d
0w
0x
#11
1d
1w
1x
#16
0d
0w
0x
#21
1d
1w
1x
#26
0d
0w
0x
#31
1d
1w
1x
#36
0d
0w
0x
#41
1d
1w
1x
#46
0"$
0d
0w
0*
0x
0+
#51
0Q
1<
0}
b0000000010 "%
1w
1x
b0000000010 a
1(
0L
b10 /
1>
1M
0\
0c
1"
11
1d
08
0l
1{
0m
1;
#56
0d
0w
0x
#61
0<
1&
1h
1w
b0000000100 "%
1x
b0000000100 a
0(
b00 /
0>
0M
0"
01
1d
1"!
1"(
1""
1")
0{
1O
1"*
0;
#66
0d
0w
0x
#71
1`
1v
0&
0h
1w
b0000001000 "%
1Z
1x
b0000001000 a
1d
0"!
1@
1k
1V
0""
1#
0"(
0")
0O
0"*
1_
#76
0d
0w
0x
#81
13
0`
1C
0v
1J
b0000010000 "%
1w
0Z
16
1x
b0000010000 a
1[
1"'
1?
1d
0@
0k
0V
0#
0_
1n
#86
0d
0w
0x
#91
03
1-
1u
1X
0C
0J
b0000100000 "%
1w
06
1"&
1"5
1x
b0000100000 a
0[
0"'
1q
1".
0?
1y
1d
0n
#96
0d
0w
0x
#101
1f
0-
0u
0X
b0001000000 "%
1w
0"&
0"5
1x
b0001000000 a
1"-
1b
0q
0".
10
0y
1d
1s
1G
1e
1"1
1]
1$
1^
1A
#106
0d
0w
0x
#111
0f
1Q
14
15
1}
b0010000001 "%
b0010000001 a
1L
b01 /
0b
00
1c
1d
0G
0e
0]
0^
1I
0A
1w
1x
0"-
1p
1\
1"/
0s
18
0"1
19
1l
0$
1:
1m
1P
#116
0d
0w
0x
#121
0Q
1<
04
1g
05
0}
b0100000010 "%
1~
b0100000010 a
0L
b10 /
1M
0c
11
1d
1{
1"#
0I
1B
1"2
1"3
1w
1x
1(
0p
1>
1)
0\
1!
0"/
1"
08
09
0l
0:
0m
0P
1;
#126
0d
0w
0x
#131
0<
0g
1h
1S
b1000000100 "%
0~
b1000000100 a
b00 /
0M
1N
01
1d
1"!
1G
1""
0{
0"#
0B
0"2
0"3
1&
1w
1o
1x
0(
1"-
0>
0)
0!
0"
1"(
1"1
1")
1W
1$
1O
1"*
0;
#136
0d
0w
0x
#141
1Q
1}
0h
0S
b0000001001 "%
b0000001001 a
1L
b01 /
1c
0N
1d
0"!
0G
0""
1_
1`
1v
0&
1w
0o
1Z
1x
0"-
1\
1@
18
1k
1V
1#
0"1
0"(
0")
0W
1l
0$
0O
0"*
1m
#146
0d
0w
0x
#151
13
0Q
1<
1J
0}
b0000010010 "%
16
b0000010010 a
0L
1"'
b10 /
1M
0c
11
1d
1{
0_
0`
1C
0v
1w
0Z
1x
1(
1[
1>
0\
1?
1"
0@
08
0k
0V
0#
0l
0m
1;
1n
#156
0d
0w
0x
#161
03
0<
0J
1h
b0000100100 "%
06
1"&
b0000100100 a
0"'
b00 /
0M
1y
1d
1"!
01
1""
0{
1-
1u
1X
0C
1&
1w
1"5
1x
0(
0[
0>
1q
1".
0?
0"
1"(
1")
1O
1"*
0;
0n
#166
0d
0w
0x
#171
1f
0h
b0001001000 "%
0"&
b0001001000 a
1b
10
0y
1d
0"!
1G
0""
1e
1]
1^
1A
1_
0-
0u
1`
0X
1v
0&
1w
1Z
0"5
1x
1"-
0q
0".
1@
1s
1k
1V
1#
1"1
0"(
0")
1$
0O
0"*
#176
0d
0w
0x
#181
13
0f
1Q
14
1J
15
1}
b0010010001 "%
16
b0010010001 a
1L
1"'
b01 /
0b
00
1c
1d
0G
0e
0]
0^
1I
0A
0_
0`
1C
0v
1w
0Z
1x
0"-
1[
1p
1\
1?
1"/
0@
0s
18
0k
0V
0#
0"1
19
1l
0$
1:
1m
1P
1n
#186
0d
0w
0x
#191
03
0Q
1<
04
1g
0J
05
0}
b0100100010 "%
1~
1"&
06
b0100100010 a
0L
0"'
b10 /
1M
0c
1y
1d
11
1{
1"#
0I
1B
1"2
1-
1u
1X
0C
1"3
1w
1"5
1x
1(
0[
0p
1>
1)
1q
1".
1!
0\
0?
0"/
1"
08
09
0l
0:
0m
0P
1;
0n
#196
0d
0w
0x
#201
1f
0<
0g
1h
1S
b1001000100 "%
0~
0"&
b1001000100 a
b00 /
1b
0M
10
1N
0y
1d
1"!
01
1""
1e
1]
0{
0"#
1^
1A
0B
0"2
0-
0u
0X
0"3
1&
1w
1o
0"5
1x
0(
0>
0)
0q
0".
0!
0"
1s
1"(
1")
1W
1O
1"*
0;
#206
0d
0w
0x
#211
0f
14
15
0h
0S
b0010001000 "%
b0010001000 a
0b
00
0N
1d
0"!
0""
0e
0]
0^
1I
0A
1_
1`
1v
0&
1w
0o
1Z
1x
1p
1"/
1@
0s
1k
1V
1#
0"(
19
0")
0W
0O
1:
0"*
1P
#216
0d
0w
0x
#221
13
04
1g
1J
05
b0100010000 "%
1~
16
b0100010000 a
1"'
1d
1"#
0I
0_
1B
1"2
0`
1C
1"3
0v
1w
0Z
1x
0p
1[
1)
1!
1?
0"/
0@
0k
0V
0#
09
0:
0P
1n
#226
0d
0w
0x
#231
03
0g
0J
b1000100000 "%
1S
0~
1"&
06
b1000100000 a
0"'
1N
1y
1d
1G
0"#
0B
0"2
1-
1u
1X
0C
0"3
1w
1o
1"5
1x
1"-
0[
0)
1q
1".
0!
0?
1"1
1$
1W
0n
#236
0d
0w
0x
#241
1f
1Q
1}
b0001000001 "%
0S
0"&
b0001000001 a
1L
b01 /
1b
10
1c
0N
0y
1d
1e
1]
1^
1A
0-
0u
0X
1w
0o
0"5
1x
0q
0".
1\
1s
18
1l
0W
1m
#246
0d
0w
0x
#251
0f
1<
14
15
b0010000011 "%
b0010000011 a
b11 /
0b
1M
00
11
1d
0G
0e
0]
1{
0^
1I
0A
1w
1x
1(
0"-
1p
1>
1"/
1"
0s
0"1
19
0$
1:
1P
1;
#256
0d
0w
0x
#261
0Q
04
1g
05
0}
1h
b0100000110 "%
1~
b0100000110 a
0L
b10 /
0c
1d
1"!
1""
1"#
0I
1B
1"2
1"3
1&
1w
1x
0p
1)
0\
1!
0"/
08
1"(
09
1")
0l
1O
0:
1"*
0m
0P
#266
0d
0w
0x
#271
0<
0g
b1000001100 "%
1S
0~
b1000001100 a
b00 /
0M
1N
01
1d
1G
0{
0"#
1_
0B
0"2
1`
0"3
1v
1w
1o
1Z
1x
0(
1"-
0>
0)
0!
0"
1@
1k
1V
1#
1"1
1$
1W
0;
#276
0d
0w
0x
#281
13
1Q
1J
1}
0h
0S
b0000011001 "%
16
b0000011001 a
1L
1"'
b01 /
1c
0N
1d
0"!
0G
0""
1C
0&
1w
0o
1x
0"-
1[
1\
1?
18
0"(
0"1
0")
0W
1l
0$
0O
0"*
1m
1n
#286
0d
0w
0x
#291
0Q
1<
0}
b0000110010 "%
1"&
b0000110010 a
0L
b10 /
1M
0c
1y
1d
11
1{
0_
1-
1u
0`
1X
0v
1w
0Z
1"5
1x
1(
1>
1q
1".
0\
1"
0@
08
0k
0V
0#
0l
0m
1;
#296
0d
0w
0x
#301
03
1f
0<
0J
1h
b0001100100 "%
06
b0001100100 a
0"'
b00 /
1b
0M
10
01
1d
1"!
1G
1""
1e
1]
0{
1^
1A
0C
1&
1w
1x
0(
0[
1"-
0>
0?
0"
1s
1"(
1"1
1")
1$
1O
1"*
0;
0n
#306
0d
0w
0x
#311
1Q
14
15
1}
0h
b0011001001 "%
0"&
b0011001001 a
1L
b01 /
1c
0y
1d
0"!
0""
1I
1_
0-
0u
1`
0X
1v
0&
1w
1Z
0"5
1x
1p
0q
0".
1\
1"/
1@
18
1k
1V
1#
0"(
19
0")
1l
0O
1:
0"*
1m
1P
#316
0d
0w
0x
#321
13
0f
1<
1g
1J
b0110010011 "%
1~
16
b0110010011 a
1"'
b11 /
0b
1M
00
11
1d
0G
0e
0]
1{
1"#
0^
0A
0_
1B
1"2
0`
1C
1"3
0v
1w
0Z
1x
1(
1[
0"-
1>
1)
1!
1?
1"
0@
0s
0k
0V
0#
0"1
0$
1;
1n
#326
0d
0w
0x
#331
03
0Q
04
0J
05
0}
1S
1h
b1100100110 "%
06
1"&
b1100100110 a
0L
0"'
b10 /
0c
1N
1y
1d
1"!
1G
1""
0I
1-
1u
1X
0C
1&
1w
1o
1"5
1x
1"-
0[
0p
1q
1".
0\
0?
0"/
08
1"(
1"1
09
1")
1W
0l
1$
1O
0:
1"*
0m
0P
0n
#336
0d
0w
0x
#341
1f
1Q
0<
1}
b1001001101 "%
1b
0M
10
0y
1d
0G
0{
0"#
1^
1A
0"2
0u
1`
0X
1w
1Z
0(
0q
0".
1\
0"
1s
1k
1V
0$
1m
0;
0g
0~
0"&
b1001001101 a
1L
b01 /
1c
01
1e
1]
1_
0B
0-
0"3
1v
0"5
1x
0"-
0>
0)
0!
1@
18
1#
0"1
1l
#346
0d
0w
0x
#351
0f
0Q
1<
14
0}
0h
0S
b0010011010 "%
16
1"'
0b
1M
00
1d
0"!
1{
0^
1I
0A
1C
0&
1w
0o
1(
0\
1?
1"
0s
0"(
19
0"*
0m
1P
1;
13
1J
15
b0010011010 a
0L
b10 /
0c
0N
11
0""
0e
0]
1x
1p
1[
1>
1"/
08
0")
0W
0l
0O
1:
1n
#356
0d
0w
0x
#361
0<
04
1g
05
1h
b0100110100 "%
1~
1"&
b0100110100 a
b00 /
0M
1y
1d
1"!
01
1""
0{
1"#
0I
0_
1B
1"2
1-
1u
0`
1X
1"3
0v
1&
1w
0Z
1"5
1x
0(
0p
0>
1)
1q
1".
1!
0"/
0"
0@
0k
0V
0#
1"(
09
1")
1O
0:
1"*
0P
0;
#366
0d
0w
0x
#371
03
1f
0g
0J
0h
1S
b1001101000 "%
0~
06
b1001101000 a
0"'
1b
10
1N
1d
0"!
0""
1e
1]
0"#
1^
1A
1_
0B
0"2
1`
0C
0"3
1v
0&
1w
1o
1Z
1x
0[
0)
0!
0?
1@
1s
1k
1V
1#
0"(
0")
1W
0O
0"*
0n
#376
0d
0w
0x
#381
13
14
1J
15
b0011010000 "%
0S
16
0"&
b0011010000 a
1"'
0N
0y
1d
1G
1I
0_
0-
0u
0`
0X
1C
0v
1w
0o
0Z
0"5
1x
1"-
1[
1p
0q
0".
1?
1"/
0@
0k
0V
0#
1"1
19
1$
0W
1:
1P
1n
#386
0d
0w
0x
#391
03
0f
1Q
1g
0J
1}
b0110100001 "%
1~
1"&
06
b0110100001 a
1L
0"'
b01 /
0b
00
1c
1y
1d
0G
0e
0]
1"#
0^
0A
1B
1"2
1-
1u
1X
0C
1"3
1w
1"5
1x
0"-
0[
1)
1q
1".
1!
1\
0?
0s
18
0"1
1l
0$
1m
0n
#396
0d
0w
0x
#401
1f
0Q
1<
04
05
0}
1S
b1101000010 "%
0"&
b1101000010 a
0L
b10 /
1b
1M
10
0c
1N
0y
1d
11
1e
1]
1{
1^
0I
1A
0-
0u
0X
1w
1o
0"5
1x
1(
0p
1>
0q
0".
0\
0"/
1"
1s
08
09
0l
1W
0:
0m
0P
1;
#406
0d
0w
0x
#411
0f
0<
14
0g
15
1h
b1010000100 "%
0~
b1010000100 a
b00 /
0b
0M
00
01
1d
1"!
1G
1""
0e
0]
0{
0"#
0^
1I
0A
0B
0"2
0"3
1&
1w
1x
0(
1"-
1p
0>
0)
0!
1"/
0"
0s
1"(
1"1
19
1")
1$
1O
1:
1"*
1P
0;
#416
0d
0w
0x
#421
1Q
04
1g
05
1}
0S
0h
b0100001001 "%
1~
b0100001001 a
1L
b01 /
1c
0N
1d
0"!
0G
0""
1"#
0I
1_
1B
1"2
1`
1"3
1v
0&
1w
0o
1Z
1x
0"-
0p
1)
1\
1!
0"/
1@
18
1k
1V
1#
0"1
0"(
09
0")
0W
1l
0$
0O
0:
0"*
1m
0P
#426
0d
0w
0x
#431
13
0Q
1<
0g
1J
0}
b1000010010 "%
1S
0~
16
b1000010010 a
0L
1"'
b10 /
1M
0c
1N
11
1d
1G
1{
0"#
0_
0B
0"2
0`
1C
0"3
0v
1w
1o
0Z
1x
1(
1[
1"-
1>
0)
0\
0!
1?
1"
0@
08
0k
0V
0#
1"1
0l
1W
1$
0m
1;
1n
#436
0d
0w
0x
#441
03
1Q
0<
0J
1}
1h
0S
b0000100101 "%
06
1"&
b0000100101 a
1L
0"'
b01 /
0M
1c
0N
1y
1d
1"!
01
0G
1""
0{
1-
1u
1X
0C
1&
1w
0o
1"5
1x
0(
0[
0"-
0>
1q
1".
1\
0?
0"
18
1"(
0"1
1")
0W
1l
0$
1O
1"*
1m
0;
0n
#446
0d
0w
0x
#451
1f
0Q
1<
0}
0h
b0001001010 "%
1b
1M
10
0y
1d
0"!
1G
1{
1^
1A
0u
1`
0X
0&
1w
1Z
1(
0q
0".
0\
1"
1s
1k
1V
0"(
1$
0"*
0m
1;
0"&
b0001001010 a
0L
b10 /
0c
11
0""
1e
1]
1_
0-
1v
0"5
1x
1"-
1>
1@
08
1#
1"1
0")
0l
0O
#456
0d
0w
0x
#461
0f
1Q
0<
14
1}
1h
b0010010101 "%
16
1"'
0b
0M
00
1d
1"!
0G
0{
0^
1I
0A
0`
1C
1&
1w
0Z
0(
1\
1?
0"
0s
0k
0V
1"(
19
0$
1"*
1m
1P
0;
13
1J
15
b0010010101 a
1L
b01 /
1c
01
1""
0e
0]
0_
0v
1x
0"-
1[
1p
0>
1"/
0@
18
0#
0"1
1")
1l
1O
1:
1n
#466
0d
0w
0x
#471
0Q
1<
04
0}
0h
b0100101010 "%
06
0"'
1M
1y
1d
0"!
1{
1"#
0I
1"2
1u
1`
1X
0C
0&
1w
1Z
1(
1q
1".
0\
0?
1"
1k
1V
0"(
09
0"*
0m
0P
1;
03
1g
0J
05
1~
1"&
b0100101010 a
0L
b10 /
0c
11
0""
1_
1B
1-
1"3
1v
1"5
1x
0p
0[
1>
1)
1!
0"/
1@
08
1#
0")
0l
0O
0:
0n
#476
0d
0w
0x
#481
1f
0<
1h
1S
b1001010100 "%
16
1"'
1b
0M
10
0y
1d
1"!
0{
0"#
1^
1A
0"2
0u
0`
0X
1C
1&
1w
1o
0Z
0(
0q
0".
1?
0"
1s
0k
0V
1"(
1"*
0;
13
0g
1J
0~
0"&
b1001010100 a
b00 /
1N
01
1""
1e
1]
0_
0B
0-
0"3
0v
0"5
1x
1[
0>
0)
0!
0@
0#
1")
1W
1O
1n
#486
0d
0w
0x
#491
0f
14
0h
0S
b0010101000 "%
06
0"'
0b
00
1y
1d
0"!
0^
1I
0A
1u
1`
1X
0C
0&
1w
0o
1Z
1q
1".
0?
0s
1k
1V
0"(
19
0"*
1P
03
0J
15
1"&
b0010101000 a
0N
0""
0e
0]
1_
1-
1v
1"5
1x
1p
0[
1"/
1@
1#
0")
0W
0O
1:
0n
#496
0d
0w
0x
#501
1f
04
b0101010000 "%
16
1"'
1b
10
0y
1d
1G
1"#
1^
0I
1A
1"2
0u
0`
0X
1C
1w
0Z
0q
0".
1?
1s
0k
0V
09
1$
0P
13
1g
1J
05
1~
0"&
b0101010000 a
1e
1]
0_
1B
0-
1"3
0v
0"5
1x
1"-
1[
0p
1)
1!
0"/
0@
0#
1"1
0:
1n
#506
0d
0w
0x
#511
0f
1Q
14
1}
b1010100001 "%
1S
06
0"'
0b
00
1y
1d
0"#
0^
1I
0A
0"2
1u
1X
0C
1w
1o
1q
1".
1\
0?
0s
19
1m
1P
03
0g
0J
15
0~
1"&
b1010100001 a
1L
b01 /
1c
1N
0e
0]
0B
1-
0"3
1"5
1x
1p
0[
0)
0!
1"/
18
1l
1W
1:
0n
#516
0d
0w
0x
#521
1f
1<
04
1g
05
b0101000011 "%
0S
1~
0"&
b0101000011 a
b11 /
1b
1M
10
0N
0y
1d
11
1e
1]
1{
1"#
1^
0I
1A
1B
1"2
0-
0u
0X
1"3
1w
0o
0"5
1x
1(
0p
1>
1)
0q
0".
1!
0"/
1"
1s
09
0W
0:
0P
1;
#526
0d
0w
0x
#531
0f
14
0g
15
1h
1S
b1010000111 "%
0~
b1010000111 a
0b
00
1N
1d
1"!
1""
0e
0]
0"#
0^
1I
0A
0B
0"2
0"3
1&
1w
1o
1x
1p
0)
0!
1"/
0s
1"(
19
1")
1W
1O
1:
1"*
1P
#536
0d
0w
0x
#541
04
1g
05
b0100001111 "%
0S
1~
b0100001111 a
0N
1d
0G
1"#
0I
1_
1B
1"2
1`
1"3
1v
1w
0o
1Z
1x
0"-
0p
1)
1!
0"/
1@
1k
1V
1#
0"1
09
0$
0W
0:
0P
#546
0d
0w
0x
#551
13
0Q
0g
1J
0}
b1000011110 "%
1S
0~
16
b1000011110 a
0L
1"'
b10 /
0c
1N
1d
1G
0"#
0B
0"2
1C
0"3
1w
1o
1x
1"-
1[
0)
0\
0!
1?
08
1"1
0l
1W
1$
0m
1n
#556
0d
0w
0x
#561
1Q
0<
1}
b0000111101 "%
0S
1"&
b0000111101 a
1L
b01 /
0M
1c
0N
1y
1d
01
0G
0{
1-
1u
1X
1w
0o
1"5
1x
0(
0"-
0>
1q
1".
1\
0"
18
0"1
1l
0W
0$
1m
0;
#566
0d
0w
0x
#571
1f
0Q
1<
0}
0h
b0001111010 "%
b0001111010 a
0L
b10 /
1b
1M
10
0c
11
1d
0"!
1G
0""
1e
1]
1{
1^
1A
0&
1w
1x
1(
1"-
1>
0\
1"
1s
08
0"(
1"1
0")
0l
1$
0O
0"*
0m
1;
#576
0d
0w
0x
#581
1Q
0<
14
15
1}
1h
b0011110101 "%
b0011110101 a
1L
b01 /
0M
1c
01
1d
1"!
1""
0{
1I
0_
0`
0v
1&
1w
0Z
1x
0(
1p
0>
1\
1"/
0"
0@
18
0k
0V
0#
1"(
19
1")
1l
1O
1:
1"*
1m
1P
0;
#586
0d
0w
0x
#591
03
1<
1g
0J
0h
b0111101011 "%
1~
06
b0111101011 a
0"'
b11 /
1M
11
1d
0"!
0""
1{
1"#
1_
1B
1"2
1`
0C
1"3
1v
0&
1w
1Z
1x
1(
0[
1>
1)
1!
0?
1"
1@
1k
1V
1#
0"(
0")
0O
0"*
1;
0n
#596
0d
0w
0x
#601
13
1J
1h
1S
b1111010111 "%
16
0"&
b1111010111 a
1"'
1N
0y
1d
1"!
0G
1""
0_
0-
0u
0`
0X
1C
0v
1&
1w
1o
0Z
0"5
1x
0"-
1[
0q
0".
1?
0@
0k
0V
0#
0"1
1"(
1")
1W
0$
1O
1"*
1n
#606
0d
0w
0x
#611
03
0f
0Q
0J
0}
b1110101110 "%
06
1"&
b1110101110 a
0L
0"'
b10 /
0b
00
0c
1y
1d
1G
0e
0]
0^
0A
1_
1-
1u
1`
1X
0C
1v
1w
1Z
1"5
1x
1"-
0[
1q
1".
0\
0?
1@
0s
08
1k
1V
1#
1"1
0l
1$
0m
0n
#616
0d
0w
0x
#621
1f
1Q
0<
04
1}
b1101011101 "%
16
1"'
1b
0M
10
0y
1d
0G
0{
1^
0I
1A
0u
0X
1C
1w
0(
0q
0".
1\
1?
0"
1s
09
0$
1m
0P
0;
13
1J
05
0"&
b1101011101 a
1L
b01 /
1c
01
1e
1]
0-
0"5
1x
0"-
1[
0p
0>
0"/
18
0"1
1l
0:
1n
#626
0d
0w
0x
#631
0f
0Q
1<
14
0}
0h
b1010111010 "%
0b
1M
00
1y
1d
0"!
1G
1{
0"#
0^
1I
0A
0"2
1u
1X
0&
1w
1(
1q
1".
0\
1"
0s
0"(
19
1$
0"*
0m
1P
1;
0g
15
0~
1"&
b1010111010 a
0L
b10 /
0c
11
0""
0e
0]
0B
1-
0"3
1"5
1x
1"-
1p
1>
0)
0!
1"/
08
1"1
0")
0l
0O
1:
#636
0d
0w
0x
#641
1f
1Q
0<
04
1}
1h
0S
b0101110101 "%
1b
0M
10
1d
1"!
0{
1"#
1^
0I
1A
1"2
0`
1&
1w
0o
0Z
0(
1\
0"
1s
0k
0V
1"(
09
1"*
1m
0P
0;
1g
05
1~
b0101110101 a
1L
b01 /
1c
0N
01
1""
1e
1]
0_
1B
1"3
0v
1x
0p
0>
1)
1!
0"/
0@
18
0#
1")
0W
1l
1O
0:
#646
0d
0w
0x
#651
1<
14
0h
1S
b1011101011 "%
06
0"'
1M
1d
0"!
0G
1{
0"#
1I
0"2
1`
0C
0&
1w
1o
1Z
1(
0?
1"
1k
1V
0"(
19
0$
0"*
1P
1;
03
0g
0J
15
0~
b1011101011 a
b11 /
1N
11
0""
1_
0B
0"3
1v
1x
0"-
0[
1p
1>
0)
0!
1"/
1@
1#
0"1
0")
1W
0O
1:
0n
#656
0d
0w
0x
#661
0Q
0}
1h
0S
b0111010110 "%
16
1"'
0y
1d
1"!
1G
1"#
1"2
0u
0`
0X
1C
1&
1w
0o
0Z
0q
0".
0\
1?
0k
0V
1"(
1$
1"*
0m
13
1g
1J
1~
0"&
b0111010110 a
0L
b10 /
0c
0N
1""
0_
1B
0-
1"3
0v
0"5
1x
1"-
1[
1)
1!
0@
08
0#
1"1
1")
0W
0l
1O
1n
#666
0d
0w
0x
#671
0f
1Q
0<
1}
b1110101101 "%
1S
06
0"'
0b
0M
00
1y
1d
0{
0^
0A
1u
1`
1X
0C
1w
1o
1Z
0(
1q
1".
1\
0?
0"
0s
1k
1V
1m
0;
03
0J
1"&
b1110101101 a
1L
b01 /
1c
1N
01
0e
0]
1_
1-
1v
1"5
1x
0[
0>
1@
18
1#
1l
1W
0n
#676
0d
0w
0x
#681
1f
1<
04
0h
b1101011011 "%
16
1"'
1b
1M
10
0y
1d
0"!
0G
1{
1^
0I
1A
0u
0X
1C
0&
1w
1(
0q
0".
1?
1"
1s
0"(
09
0$
0"*
0P
1;
13
1J
05
0"&
b1101011011 a
b11 /
11
0""
1e
1]
0-
0"5
1x
0"-
1[
0p
1>
0"/
0"1
0")
0O
0:
1n
#686
0d
0w
0x
#691
0f
0Q
14
0}
1h
b1010110110 "%
0b
00
1y
1d
1"!
1G
0"#
0^
1I
0A
0"2
1u
0`
1X
1&
1w
0Z
1q
1".
0\
0s
0k
0V
1"(
19
1$
1"*
0m
1P
0g
15
0~
1"&
b1010110110 a
0L
b10 /
0c
1""
0e
0]
0_
0B
1-
0"3
0v
1"5
1x
1"-
1p
0)
0!
1"/
0@
08
0#
1"1
1")
0l
1O
1:
#696
0d
0w
0x
#701
1f
1Q
0<
04
1}
b0101101101 "%
0S
06
0"'
1b
0M
10
1d
0{
1"#
1^
0I
1A
1"2
1`
0C
1w
0o
1Z
0(
1\
0?
0"
1s
1k
1V
09
1m
0P
0;
03
1g
0J
05
1~
b0101101101 a
1L
b01 /
1c
0N
01
1e
1]
1_
1B
1"3
1v
1x
0p
0[
0>
1)
1!
0"/
1@
18
1#
1l
0W
0:
0n
#706
0d
0w
0x
#711
1<
14
0h
1S
b1011011011 "%
16
1"'
1M
0y
1d
0"!
0G
1{
0"#
1I
0"2
0u
0X
1C
0&
1w
1o
1(
0q
0".
1?
1"
0"(
19
0$
0"*
1P
1;
13
0g
1J
15
0~
0"&
b1011011011 a
b11 /
1N
11
0""
0B
0-
0"3
0"5
1x
0"-
1[
1p
1>
0)
0!
1"/
0"1
0")
1W
0O
1:
1n
#716
0d
0w
0x
#721
0f
0Q
0}
1h
0S
b0110110110 "%
0b
00
1y
1d
1"!
1"#
0^
0A
1"2
1u
0`
1X
1&
1w
0o
0Z
1q
1".
0\
0s
0k
0V
1"(
1"*
0m
1g
1~
1"&
b0110110110 a
0L
b10 /
0c
0N
1""
0e
0]
0_
1B
1-
1"3
0v
1"5
1x
1)
1!
0@
08
0#
1")
0W
0l
1O
#726
0d
0w
0x
#731
03
1f
0<
04
0J
05
b1101101100 "%
1S
06
b1101101100 a
0"'
b00 /
1b
0M
10
1N
01
1d
1e
1]
0{
1^
0I
1A
1_
1`
0C
1v
1w
1o
1Z
1x
0(
0[
0p
0>
0?
0"/
0"
1@
1s
1k
1V
1#
09
1W
0:
0P
0;
0n
#736
0d
0w
0x
#741
13
14
0g
1J
15
0h
b1011011000 "%
0~
0"&
16
b1011011000 a
1"'
0y
1d
0"!
0""
0"#
1I
0B
0"2
0-
0u
0X
1C
0"3
0&
1w
0"5
1x
1p
1[
0)
0q
0".
0!
1?
1"/
0"(
19
0")
0O
1:
0"*
1P
1n
#746
0d
0w
0x
