test_run_dir/MemTesterWave139386325/Memory.vcd
$date
2021-01-21T15:56+0000
$end
$version
0.2
$end
$comment

$end
$timescale 1ns  $end
$scope module Memory $end
 $var wire 1 $ _GEN_2 $end
 $var wire 7 % _T $end
 $var wire 10 ' io_data_in $end
 $var wire 10 ) io_data_out $end
 $var wire 10 * Mem $end
 $var wire 1 + wrEna $end
 $var wire 8 . io_WrAdd $end
 $var wire 1 / _GEN_1 $end
 $var wire 10 0 _GEN_4 $end
 $var wire 1 2 clock $end
 $var wire 7 8 _GEN_0 $end
 $var wire 10 9 ReadAdd $end
 $var wire 1 : io_wrEna $end
 $var wire 10 ; WrAdd $end
 $var wire 8 < io_ReadAdd $end
 $var wire 10 = data_in $end
 $var wire 1 > reset $end
 $var wire 1 ? _GEN_3 $end
  $scope module Mem $end
    $scope module _T_1 $end
     $var wire 1 ! en $end
     $var wire 1 & mask $end
     $var wire 1 ( clk $end
     $var wire 7 , addr $end
     $var wire 7 - pipeline_addr_0 $end
     $var wire 1 3 pipeline_valid_0 $end
     $var wire 10 4 data $end
     $var wire 10 7 pipeline_data_0 $end
     $var wire 1 A valid $end
    $upscope $end
    $scope module _T_3 $end
     $var wire 10 " data $end
     $var wire 1 # en $end
     $var wire 1 1 clk $end
     $var wire 7 5 addr $end
     $var wire 1 6 pipeline_ren_0 $end
     $var wire 7 @ pipeline_raddr_0 $end
    $upscope $end
  $upscope $end
$upscope $end
$enddefinitions $end
$dumpvars
b0000000 5
b0000000 -
0&
0>
06
0!
b0000000000 '
b0000000000 )
b0000000 @
b0000000000 *
b0000000 ,
b0000000000 "
0:
02
b0000000 %
b00000000 <
03
b0000000000 9
b0000000000 ;
b0000000000 4
b0000000000 =
0/
b0000000 8
0(
01
b0000000000 7
0?
b0000000000 0
0+
0A
0$
1#
b00000000 .
$end
#0
1?
1&
1>
#1
11
12
16
1(
1/
#6
01
02
0(
0/
#11
11
12
1(
1/
#16
01
02
0(
0/
#21
11
12
1(
1/
#26
01
02
0(
0/
#31
11
12
1(
1/
#36
01
02
0(
0/
#41
11
12
1(
1/
#46
b00000101 <
01
02
0(
0/
0>
#51
11
b0000101 5
12
b0000000101 9
1(
1/
#56
01
b00000111 .
02
b0001001101 '
0(
1:
0/
#61
b0000111 %
b0001001101 4
b0001001101 =
1(
1/
1!
b0001001101 0
11
b0000101 @
b0000111 8
12
1$
1+
1A
b0000111 ,
b0000000111 ;
#66
b00000111 <
01
02
0:
0(
0/
#71
0!
13
b0000111 -
11
b0000111 5
12
b0000000111 9
0$
0+
1(
b0001001101 7
1/
0A
#76
01
02
0(
0/
#81
03
b0001001101 "
11
b0000111 @
12
1(
1/
b0001001101 )
#86
01
b00001001 .
02
b0001011010 '
1:
0(
0/
#91
b0001001 %
b0001011010 4
b0001011010 =
1(
1/
1!
b0001011010 0
11
b0001001 8
12
1$
1+
1A
b0001001 ,
b0000001001 ;
#96
b00001001 <
01
02
0(
0/
#101
13
b0001001 -
11
b0001001 5
12
b0000001001 9
1(
b0001011010 7
1/
#106
01
02
0(
0/
