test_run_dir/Action_waveform1716896464/takingAction.vcd
$date
2021-01-21T18:11+0000
$end
$version
0.2
$end
$comment

$end
$timescale 1ns  $end
$scope module takingAction $end
 $var wire 1 $ action $end
 $var wire 13 & _T $end
 $var wire 3 1 io_x $end
 $var wire 1 8 io_move_to_confirming_Reward $end
 $var wire 1 = io_reset_Action_fms $end
 $var wire 10 B epsilon $end
 $var wire 2 D io_act $end
 $var wire 10 G io_rand2 $end
 $var wire 1 L clock $end
 $var wire 1 M action_fms $end
 $var wire 2 P io_action_at_Qmax $end
 $var wire 1 W exploit $end
 $var wire 3 X io_y $end
 $var wire 9 ` io_episode $end
 $var wire 6 d io_new_state $end
 $var wire 1 f reset $end
 $var wire 10 h io_rand1 $end
  $scope module action_fms $end
   $var wire 1 # _GEN_12 $end
   $var wire 1 % _GEN_15 $end
   $var wire 3 ' _GEN_8 $end
   $var wire 1 + io_validAction $end
   $var wire 3 , action_FMS $end
   $var wire 1 - io_exploit $end
   $var wire 3 . _GEN_2 $end
   $var wire 1 0 _GEN_18 $end
   $var wire 1 3 io_reset_Action_fms $end
   $var wire 3 4 _GEN_5 $end
   $var wire 1 6 reset $end
   $var wire 3 7 _GEN_17 $end
   $var wire 3 : _GEN_4 $end
   $var wire 3 ? _GEN_11 $end
   $var wire 1 A _GEN_7 $end
   $var wire 3 E _GEN_14 $end
   $var wire 1 I _GEN_1 $end
   $var wire 1 Q _GEN_9 $end
   $var wire 1 S _GEN_16 $end
   $var wire 1 V _GEN_10 $end
   $var wire 1 Z _GEN_3 $end
   $var wire 1 [ _GEN_19 $end
   $var wire 1 ^ _GEN_13 $end
   $var wire 1 _ _GEN_6 $end
   $var wire 1 c io_move_to_confirming_Reward $end
   $var wire 3 e _GEN_0 $end
   $var wire 1 i io_keep_x_y $end
   $var wire 1 j _T $end
   $var wire 1 l clock $end
  $upscope $end
  $scope module action $end
   $var wire 3 ! y_new $end
   $var wire 1 " _GEN_12 $end
   $var wire 6 ( new_state $end
   $var wire 1 ) io_exploit $end
   $var wire 3 * _GEN_8 $end
   $var wire 2 / _GEN_2 $end
   $var wire 1 2 _T $end
   $var wire 3 5 _GEN_5 $end
   $var wire 2 9 io_act $end
   $var wire 3 ; _GEN_11 $end
   $var wire 6 < io_new_state $end
   $var wire 3 > _GEN_4 $end
   $var wire 1 @ reset $end
   $var wire 3 C _GEN_7 $end
   $var wire 2 F action_at_Qmax $end
   $var wire 2 H _GEN_1 $end
   $var wire 3 J io_y $end
   $var wire 3 K _GEN_10 $end
   $var wire 2 N act $end
   $var wire 6 O _GEN_13 $end
   $var wire 3 R _GEN_9 $end
   $var wire 1 T io_keep_x_y $end
   $var wire 3 U x_new $end
   $var wire 2 Y io_action_at_Qmax $end
   $var wire 2 \ _GEN_3 $end
   $var wire 10 ] io_rand2 $end
   $var wire 3 a _GEN_6 $end
   $var wire 3 b io_x $end
   $var wire 2 g _GEN_0 $end
   $var wire 1 k clock $end
   $var wire 1 m io_validAction $end
  $upscope $end
$upscope $end
$enddefinitions $end
$dumpvars
b00 Y
b000000 (
b00 D
b000 *
0Z
0=
b000 ,
0i
0T
0"
b000 C
b000 .
0k
0V
b000 E
0m
03
b000 ?
0-
0L
b000 X
b000 ;
0c
b0000000000000 &
0[
b000 R
0)
b000 5
0@
0+
b000 7
0_
0W
b000000 <
0%
b000 1
b000 e
b0000000000 B
0S
b00 \
b000 J
06
0j
b000 a
0M
08
0#
b000000 O
b00 9
b000 '
0l
b0000000000 ]
b00 P
02
b000 >
b000 !
0f
0Q
b00 g
0I
b000 U
b000 :
b00 /
b000000 d
b0000000000 h
b00 N
00
b00 F
b000 4
b000000000 `
b00 H
b000 K
0^
0A
b000 b
b0000000000 G
0$
$end
#0
1f
1-
b11 g
b100 .
b001 5
16
b001 E
b001 a
b001 7
1j
1)
1"
1@
12
b001 e
b001 *
b11 H
1W
1+
1m
1I
#1
1k
1l
1L
#6
0k
0l
0L
#11
1k
1l
1L
#16
0k
0l
0L
#21
1k
1l
1L
#26
0k
0l
0L
#31
1k
1l
1L
#36
0k
0l
0L
#41
1k
1l
1L
#46
0f
0@
b11 Y
0k
06
0l
0L
b11 P
#51
b1111101000 B
0-
b001 4
b001 '
b011 E
1L
b011 7
0j
0)
b011 ?
b11 F
1k
b010 e
1l
0W
b001 :
b001 ,
#56
0k
0l
0L
#61
1Q
1%
b100 4
b100 '
b001 K
1i
b100 E
1L
b100 7
10
b100 ?
1T
1k
1#
1l
b011 :
b011 ,
1_
#66
0k
0l
0L
#71
0Q
0%
1S
1Z
0i
1L
1[
b001 !
00
1c
0T
18
1k
1V
0#
1l
b000101 O
b100 :
1^
1A
b100 ,
0_
#76
0k
0l
0L
#81
b000101 <
b000101 d
1k
1l
1L
b000101 (
#86
0k
0l
0L
#91
1k
1l
1L
#96
0k
0l
0L
#101
1k
1l
1L
#106
0k
0l
0L
#111
1k
1l
1L
#116
13
0c
08
0k
0l
1=
0L
0[
b000 7
#121
b000 4
0S
b000 '
0Z
b010 E
1L
1j
b000 ?
1k
0V
1l
b000 :
0^
0A
b000 ,
#126
03
b1110101010 G
b1100001011 h
02
0k
b1110101010 ]
0l
0=
0L
b010 7
b11 /
b11 \
#131
b010 4
b001 R
b11 D
b011 '
b011 E
1L
b011 7
0j
b011 ?
b11 N
1k
b000 *
b11 9
1l
b010 :
b010 ,
#136
b10 g
b1010010110 G
b1100101010 h
0k
b1010010110 ]
b10 H
0l
0L
b10 /
b10 \
#141
1Q
1%
b100 4
b111 C
b000 R
b000 5
b10 D
b100 '
b111 K
1i
b100 E
b000 a
1L
b100 7
b111 >
10
b100 ?
b10 N
1T
1k
1#
b111 *
b10 9
1l
b011 :
b011 ,
1_
#146
b1001111101 G
b1111011000 h
0k
b1001111101 ]
0l
0L
#151
0Q
0%
b000 4
b000 .
b000 '
0i
b000 E
1L
b000 7
b111 !
00
b000 ?
0T
0"
1k
0#
1l
0+
b000 :
0m
0I
b100 ,
0_
#156
b11 g
b1100101001 G
b1011101100 h
0k
b1100101001 ]
b11 H
0l
0L
b11 /
b11 \
#161
b000 C
b001 R
b001 5
b11 D
b010 E
b001 a
1L
b010 7
1j
b000 >
b11 N
1k
b000 *
b11 9
1l
b000 ,
#166
b1110001001 G
b0100111110 h
0k
b1110001001 ]
0l
0L
#171
b011 ?
b010 4
1k
b011 '
1l
b011 E
1L
b010 :
0j
b011 7
b010 ,
#176
b10 g
b1001101000 G
b1010001011 h
0k
b1001101000 ]
b10 H
0l
0L
b10 /
b10 \
#181
1Q
1%
b100 4
b111 C
b000 R
b000 5
b10 D
b100 '
1i
b100 E
b000 a
1L
b100 7
b111 >
10
b100 ?
b10 N
1T
1k
1#
b111 *
b10 9
1l
b011 :
b011 ,
1_
#186
b11 g
b1110010011 G
b1001110000 h
0k
b1110010011 ]
b11 H
0l
0L
b11 /
b11 \
#191
0Q
0%
b000 4
b000 C
b001 R
b001 5
b11 D
b000 '
0i
b000 E
b001 a
1L
b000 7
b000 >
00
b000 ?
b11 N
0T
1k
0#
b000 *
b11 9
1l
b000 :
b100 ,
0_
#196
b1100011100 G
b1101110111 h
0k
b1100011100 ]
0l
0L
#201
1k
1l
b010 E
1L
b010 7
1j
b000 ,
#206
b0010101100 G
b1111010000 h
12
0k
b0010101100 ]
0l
0L
b00 /
b00 \
#211
b010 4
b000 R
b00 D
b011 '
b011 E
1L
b011 7
0j
b011 ?
b00 N
1k
b001 *
b00 9
1l
b010 :
b010 ,
#216
b10 g
b1000000010 G
b1000100010 h
02
0k
b1000000010 ]
b10 H
0l
0L
b10 /
b10 \
#221
1Q
1%
b100 4
b111 C
b000 5
b10 D
b100 '
1i
b100 E
b000 a
1L
b100 7
b111 >
10
b100 ?
b10 N
1T
1k
1#
b111 *
b10 9
1l
b011 :
b011 ,
1_
#226
b11 g
b0011011011 G
b1001011100 h
12
0k
b0011011011 ]
b11 H
0l
0L
b00 /
b00 \
#231
0Q
0%
b000 4
b000 C
b001 5
b00 D
b000 '
0i
b000 E
b001 a
1L
b000 7
b000 >
00
b000 ?
b00 N
0T
1k
0#
b001 *
b00 9
1l
b000 :
b100 ,
0_
#236
b0010011011 G
b1010000101 h
0k
b0010011011 ]
0l
0L
#241
1k
1l
b010 E
1L
b010 7
1j
b000 ,
#246
b0101110101 G
b1011001010 h
02
0k
b0101110101 ]
b01 H
0l
0L
b01 /
b01 \
#251
b010 4
b111 R
b01 D
b011 '
b011 E
b111 a
1L
b011 7
0j
b011 ?
b01 N
1k
b000 *
b01 9
1l
b010 :
b010 ,
#256
b10 g
b1000110101 G
b0000000100 h
0k
b1000110101 ]
b10 H
0l
0L
b10 /
b10 \
#261
1Q
1%
b100 4
b111 C
b000 R
b000 5
b10 D
b100 '
1i
b100 E
b000 a
1L
b100 7
b111 >
10
b100 ?
b10 N
1T
1k
1#
b111 *
b10 9
1l
b011 :
b011 ,
1_
#266
b1000111010 G
b1110100001 h
0k
b1000111010 ]
0l
0L
#271
0Q
0%
b000 4
b000 '
0i
b000 E
1L
b000 7
00
b000 ?
0T
1k
0#
1l
b000 :
b100 ,
0_
#276
b1000100110 G
b1111001100 h
0k
b1000100110 ]
0l
0L
#281
1k
1l
b010 E
1L
b010 7
1j
b000 ,
#286
b11 g
b1100011011 G
b1110111111 h
0k
b1100011011 ]
b11 H
0l
0L
b11 /
b11 \
#291
b010 4
b000 C
b001 R
b001 5
b11 D
b011 '
b011 E
b001 a
1L
b011 7
0j
b000 >
b011 ?
b11 N
1k
b000 *
b11 9
1l
b010 :
b010 ,
#296
b0111101101 G
b0110001110 h
0k
b0111101101 ]
b01 H
0l
0L
b01 /
b01 \
#301
1Q
1%
b100 4
b111 R
b01 D
b100 '
b000 K
1i
b100 E
b111 a
1L
b100 7
10
b100 ?
b01 N
1T
1k
1#
b01 9
1l
b011 :
b011 ,
1_
b111 ;
#306
b0110001000 G
b1011011001 h
0k
b0110001000 ]
0l
0L
#311
0Q
0%
b000 4
b000 '
0i
b000 E
1L
b000 7
b000 !
00
b000 ?
0T
b111 U
1k
0#
1l
b000 :
b100 ,
0_
#316
b10 g
b1000101001 G
b1011010000 h
0k
b1000101001 ]
b10 H
0l
0L
b10 /
b10 \
#321
b111 C
b000 R
b000 5
b10 D
b010 E
b000 a
1L
b010 7
1j
b111 >
b10 N
1k
b111 *
b10 9
1l
b000 ,
#326
b001 X
b11 g
b000 C
b001 J
b0001101110 h
0L
b11 /
b000 >
b11 \
b1110000010 G
0k
b000 *
b1110000010 ]
b11 H
0l
#331
b010 4
b001 C
b001 R
b001 5
b11 D
b011 '
b011 E
b001 a
1L
b011 7
0j
b001 >
b011 ?
b11 N
1k
b001 *
b11 9
1l
b010 :
b010 ,
#336
b0011010010 G
b0011000001 h
12
0k
b0011010010 ]
0l
0L
b00 /
b00 \
#341
1Q
1%
b100 4
b000 R
b00 D
b100 '
b010 K
1i
b100 E
1L
b100 7
10
b100 ?
b00 N
1T
1k
1#
b010 *
b00 9
1l
b011 :
b011 ,
1_
b000 ;
#346
b0100100111 G
b0101100101 h
02
0k
b0100100111 ]
b01 H
0l
0L
b01 /
b01 \
#351
0Q
b111 R
1S
0i
b111 a
1L
00
1c
b01 N
b001 *
1+
1^
1I
1A
b100 ,
0_
0%
b100 .
b01 D
1Z
1[
b010 !
0T
1"
b000 U
18
1k
1V
0#
b01 9
1l
b001010 O
b100 :
1m
#356
b0111001001 G
b0111001110 h
0k
b0111001001 ]
0l
0L
#361
b001010 <
b001010 d
1k
1l
1L
b001010 (
#366
b0000011101 G
b1101011001 h
12
0k
b0000011101 ]
b11 H
0l
0L
b00 /
b00 \
#371
b00 N
b000 R
1k
b00 D
b010 *
b00 9
1l
b001 a
1L
#376
b10 g
b1000101010 G
b0000110100 h
02
0k
b1000101010 ]
b10 H
0l
0L
b10 /
b10 \
#381
b10 N
b000 C
1k
b10 D
b000 5
b000 *
b10 9
1l
b000 a
1L
b000 >
#386
b11 g
b0000110001 G
b1111001010 h
12
0k
b0000110001 ]
b11 H
0l
0L
b00 /
b00 \
#391
b00 N
b001 C
1k
b00 D
b001 5
b010 *
b00 9
1l
b001 a
1L
b001 >
#396
b0101110001 G
b0100000000 h
02
0k
b0101110001 ]
b01 H
0l
0L
b01 /
b01 \
#401
b01 N
b111 R
1k
b01 D
b001 *
b01 9
1l
b111 a
1L
#406
b0011000001 G
b0001110001 h
12
0k
b0011000001 ]
b11 H
0l
0L
b00 /
b00 \
#411
b00 N
b000 R
1k
b00 D
b010 *
b00 9
1l
b001 a
1L
#416
b0011100100 G
b1111100000 h
0k
b0011100100 ]
0l
0L
#421
1k
1l
1L
#426
b0111001001 G
b0011000011 h
02
0k
b0111001001 ]
b01 H
0l
0L
b01 /
b01 \
#431
b01 N
b111 R
1k
b01 D
b001 *
b01 9
1l
b111 a
1L
#436
b0001100010 G
b0100111001 h
12
0k
b0001100010 ]
b11 H
0l
0L
b00 /
b00 \
#441
b00 N
b000 R
1k
b00 D
b010 *
b00 9
1l
b001 a
1L
#446
b1100000100 G
b1100011101 h
02
0k
b1100000100 ]
0l
0L
b11 /
b11 \
#451
b11 N
b001 R
1k
b11 D
b001 *
b11 9
1l
1L
#456
b10 g
b1000010001 G
b0101010001 h
0k
b1000010001 ]
b10 H
0l
0L
b10 /
b10 \
#461
b10 N
b000 C
b000 R
1k
b10 D
b000 5
b000 *
b10 9
1l
b000 a
1L
b000 >
#466
b11 g
b0010111011 G
b1000011000 h
12
0k
b0010111011 ]
b11 H
0l
0L
b00 /
b00 \
#471
b00 N
b001 C
1k
b00 D
b001 5
b010 *
b00 9
1l
b001 a
1L
b001 >
#476
b10 g
b1000011000 G
b1000000110 h
02
0k
b1000011000 ]
b10 H
0l
0L
b10 /
b10 \
#481
b10 N
b000 C
1k
b10 D
b000 5
b000 *
b10 9
1l
b000 a
1L
b000 >
#486
b11 g
b1110100101 G
b1101100011 h
0k
b1110100101 ]
b11 H
0l
0L
b11 /
b11 \
#491
b11 N
b001 C
b001 R
1k
b11 D
b001 5
b001 *
b11 9
1l
b001 a
1L
b001 >
#496
b10 g
b1000001000 G
b0101111110 h
0k
b1000001000 ]
b10 H
0l
0L
b10 /
b10 \
#501
b10 N
b000 C
b000 R
1k
b10 D
b000 5
b000 *
b10 9
1l
b000 a
1L
b000 >
#506
b11 g
b0000011101 G
b0011010000 h
12
0k
b0000011101 ]
b11 H
0l
0L
b00 /
b00 \
#511
b00 N
b001 C
1k
b00 D
b001 5
b010 *
b00 9
1l
b001 a
1L
b001 >
#516
b10 g
b1011011110 G
b0010111000 h
02
0k
b1011011110 ]
b10 H
0l
0L
b10 /
b10 \
#521
b10 N
b000 C
1k
b10 D
b000 5
b000 *
b10 9
1l
b000 a
1L
b000 >
#526
b010 X
b11 g
b001 C
b010 J
b0000110100 h
0L
b11 /
b001 >
b11 \
b1101011000 G
0k
b001 *
b1101011000 ]
b11 H
0l
#531
b11 N
b010 C
b001 R
1k
b11 D
b001 5
b010 *
b11 9
1l
b001 a
1L
b010 >
#536
b0011011010 G
b1001010010 h
12
0k
b0011011010 ]
0l
0L
b00 /
b00 \
#541
b00 N
b000 R
1k
b00 D
b011 *
b00 9
1l
1L
#546
b0011100110 G
b1001110101 h
0k
b0011100110 ]
0l
0L
#551
1k
1l
1L
#556
b0000011100 G
b0110010110 h
0k
b0000011100 ]
0l
0L
#561
1k
1l
1L
#566
b0110000000 G
b0100100000 h
02
0k
b0110000000 ]
b01 H
0l
0L
b01 /
b01 \
#571
b01 N
b111 R
1k
b01 D
b010 *
b01 9
1l
b111 a
1L
#576
b0110100110 G
b0111110111 h
0k
b0110100110 ]
0l
0L
#581
1k
1l
1L
#586
b0110000011 G
b1101001100 h
0k
b0110000011 ]
0l
0L
#591
1k
1l
1L
#596
b10 g
b1011011001 G
b1001100110 h
0k
b1011011001 ]
b10 H
0l
0L
b10 /
b10 \
#601
b10 N
b001 C
b000 R
1k
b10 D
b000 5
b001 *
b10 9
1l
b000 a
1L
b001 >
#606
b1010111101 G
b0000100011 h
0k
b1010111101 ]
0l
0L
#611
1k
1l
1L
#616
b11 g
b0110110001 G
b0111101011 h
0k
b0110110001 ]
b01 H
0l
0L
b01 /
b01 \
#621
b01 N
b010 C
b111 R
1k
b01 D
b001 5
b010 *
b01 9
1l
b111 a
1L
b010 >
#626
b10 g
b1010001100 G
b0111010110 h
0k
b1010001100 ]
b10 H
0l
0L
b10 /
b10 \
#631
b10 N
b001 C
b000 R
1k
b10 D
b000 5
b001 *
b10 9
1l
b000 a
1L
b001 >
#636
b11 g
b0011011000 G
b0101101011 h
12
0k
b0011011000 ]
b11 H
0l
0L
b00 /
b00 \
#641
b00 N
b010 C
1k
b00 D
b001 5
b011 *
b00 9
1l
b001 a
1L
b010 >
#646
b0110011000 G
b1110111010 h
02
0k
b0110011000 ]
b01 H
0l
0L
b01 /
b01 \
#651
b01 N
b111 R
1k
b01 D
b010 *
b01 9
1l
b111 a
1L
#656
b0101100100 G
b1100101011 h
0k
b0101100100 ]
0l
0L
#661
1k
1l
1L
#666
b10 g
b1001110000 G
b1101011101 h
0k
b1001110000 ]
b10 H
0l
0L
b10 /
b10 \
#671
b10 N
b001 C
b000 R
1k
b10 D
b000 5
b001 *
b10 9
1l
b000 a
1L
b001 >
#676
b11 g
b1100100110 G
b0111010010 h
0k
b1100100110 ]
b11 H
0l
0L
b11 /
b11 \
#681
b11 N
b010 C
b001 R
1k
b11 D
b001 5
b010 *
b11 9
1l
b001 a
1L
b010 >
#686
b0011100010 G
b1100000010 h
12
0k
b0011100010 ]
0l
0L
b00 /
b00 \
#691
b00 N
b000 R
1k
b00 D
b011 *
b00 9
1l
1L
#696
b10 g
b1011010010 G
b1011001101 h
02
0k
b1011010010 ]
b10 H
0l
0L
b10 /
b10 \
#701
b10 N
b001 C
1k
b10 D
b000 5
b001 *
b10 9
1l
b000 a
1L
b001 >
#706
b11 g
b1100100010 G
b1011101110 h
0k
b1100100010 ]
b11 H
0l
0L
b11 /
b11 \
#711
b11 N
b010 C
b001 R
1k
b11 D
b001 5
b010 *
b11 9
1l
b001 a
1L
b010 >
#716
b0010000000 G
b0001111000 h
12
0k
b0010000000 ]
0l
0L
b00 /
b00 \
#721
b00 N
b000 R
1k
b00 D
b011 *
b00 9
1l
1L
#726
b011 X
b011 C
b011 J
b0111001011 h
0L
b01 /
b011 >
b01 \
b0110000010 G
02
0k
b100 *
b0110000010 ]
b01 H
0l
#731
b01 N
b111 R
1k
b01 D
b011 *
b01 9
1l
b111 a
1L
#736
b0000001100 G
b0101110010 h
12
0k
b0000001100 ]
b11 H
0l
0L
b00 /
b00 \
#741
b00 N
b000 R
1k
b00 D
b100 *
b00 9
1l
b001 a
1L
#746
b1100100111 G
b1110100011 h
02
0k
b1100100111 ]
0l
0L
b11 /
b11 \
#751
b11 N
b001 R
1k
b11 D
b011 *
b11 9
1l
1L
#756
b1111011001 G
b1110110111 h
0k
b1111011001 ]
0l
0L
#761
1k
1l
1L
#766
b0000110001 G
b0100110101 h
12
0k
b0000110001 ]
0l
0L
b00 /
b00 \
#771
b00 N
b000 R
1k
b00 D
b100 *
b00 9
1l
1L
#776
b0111000001 G
b1100111010 h
02
0k
b0111000001 ]
b01 H
0l
0L
b01 /
b01 \
#781
b01 N
b111 R
1k
b01 D
b011 *
b01 9
1l
b111 a
1L
#786
b1011111000 G
b0110011110 h
0k
b1011111000 ]
b11 H
0l
0L
b11 /
b11 \
#791
b11 N
b001 R
1k
b11 D
b11 9
1l
b001 a
1L
#796
b1110001110 G
b0001011110 h
0k
b1110001110 ]
0l
0L
#801
1k
1l
1L
#806
b0100001001 G
b0101011111 h
0k
b0100001001 ]
b01 H
0l
0L
b01 /
b01 \
#811
b01 N
b111 R
1k
b01 D
b01 9
1l
b111 a
1L
#816
b0101001110 G
b0111011010 h
0k
b0101001110 ]
0l
0L
#821
1k
1l
1L
#826
b1100001011 G
b1010100000 h
0k
b1100001011 ]
b11 H
0l
0L
b11 /
b11 \
#831
b11 N
b001 R
1k
b11 D
b11 9
1l
b001 a
1L
#836
b0110001101 G
b0101000110 h
0k
b0110001101 ]
b01 H
0l
0L
b01 /
b01 \
#841
b01 N
b111 R
1k
b01 D
b01 9
1l
b111 a
1L
#846
b0011110001 G
b1000001111 h
12
0k
b0011110001 ]
b11 H
0l
0L
b00 /
b00 \
#851
b00 N
b000 R
1k
b00 D
b100 *
b00 9
1l
b001 a
1L
#856
b10 g
b1000111000 G
b0110100101 h
02
0k
b1000111000 ]
b10 H
0l
0L
b10 /
b10 \
#861
b10 N
b010 C
1k
b10 D
b000 5
b010 *
b10 9
1l
b000 a
1L
b010 >
#866
b11 g
b1110011011 G
b1000011101 h
0k
b1110011011 ]
b11 H
0l
0L
b11 /
b11 \
#871
b11 N
b011 C
b001 R
1k
b11 D
b001 5
b011 *
b11 9
1l
b001 a
1L
b011 >
#876
b0000110011 G
b0101100001 h
12
0k
b0000110011 ]
0l
0L
b00 /
b00 \
#881
b00 N
b000 R
1k
b00 D
b100 *
b00 9
1l
1L
#886
b1110101100 G
b0011010010 h
02
0k
b1110101100 ]
0l
0L
b11 /
b11 \
#891
b11 N
b001 R
1k
b11 D
b011 *
b11 9
1l
1L
#896
b0101011011 G
b0100011010 h
0k
b0101011011 ]
b01 H
0l
0L
b01 /
b01 \
#901
b01 N
b111 R
1k
b01 D
b01 9
1l
b111 a
1L
#906
b0111100111 G
b1000101011 h
0k
b0111100111 ]
0l
0L
#911
1k
1l
1L
#916
b1101011111 G
b1001110110 h
0k
b1101011111 ]
b11 H
0l
0L
b11 /
b11 \
#921
b11 N
b001 R
1k
b11 D
b11 9
1l
b001 a
1L
#926
b100 X
b10 g
b100 C
b100 J
b1011001001 h
0L
b10 /
b100 >
b10 \
b1000010111 G
0k
b100 *
b1000010111 ]
b10 H
0l
#931
b10 N
b011 C
b000 R
1k
b10 D
b000 5
b011 *
b10 9
1l
b000 a
1L
b011 >
#936
b1000101110 G
b1010110100 h
0k
b1000101110 ]
0l
0L
#941
1k
1l
1L
#946
b11 g
b0100100100 G
b0010111001 h
0k
b0100100100 ]
b01 H
0l
0L
b01 /
b01 \
#951
b01 N
b100 C
b111 R
1k
b01 D
b001 5
b100 *
b01 9
1l
b111 a
1L
b100 >
#956
b1110001111 G
b1011010110 h
0k
b1110001111 ]
b11 H
0l
0L
b11 /
b11 \
#961
b11 N
b001 R
1k
b11 D
b11 9
1l
b001 a
1L
#966
b0000101000 G
b1111000101 h
12
0k
b0000101000 ]
0l
0L
b00 /
b00 \
#971
b00 N
b000 R
1k
b00 D
b101 *
b00 9
1l
1L
#976
b10 g
b1000011111 G
b0001100110 h
02
0k
b1000011111 ]
b10 H
0l
0L
b10 /
b10 \
#981
b10 N
b011 C
1k
b10 D
b000 5
b011 *
b10 9
1l
b000 a
1L
b011 >
#986
b11 g
b1100010001 G
b1010000100 h
0k
b1100010001 ]
b11 H
0l
0L
b11 /
b11 \
#991
b11 N
b100 C
b001 R
1k
b11 D
b001 5
b100 *
b11 9
1l
b001 a
1L
b100 >
#996
b10 g
b1000001011 G
b0010000010 h
0k
b1000001011 ]
b10 H
0l
0L
b10 /
b10 \
#1001
b10 N
b011 C
b000 R
1k
b10 D
b000 5
b011 *
b10 9
1l
b000 a
1L
b011 >
#1006
b11 g
b1101011110 G
b1011001000 h
0k
b1101011110 ]
b11 H
0l
0L
b11 /
b11 \
#1011
b11 N
b100 C
b001 R
1k
b11 D
b001 5
b100 *
b11 9
1l
b001 a
1L
b100 >
#1016
b0100111110 G
b1010011001 h
0k
b0100111110 ]
b01 H
0l
0L
b01 /
b01 \
#1021
b01 N
b111 R
1k
b01 D
b01 9
1l
b111 a
1L
#1026
b10 g
b1001111110 G
b1110111001 h
0k
b1001111110 ]
b10 H
0l
0L
b10 /
b10 \
#1031
b10 N
b011 C
b000 R
1k
b10 D
b000 5
b011 *
b10 9
1l
b000 a
1L
b011 >
#1036
b11 g
b0100000011 G
b1011010110 h
0k
b0100000011 ]
b01 H
0l
0L
b01 /
b01 \
#1041
b01 N
b100 C
b111 R
1k
b01 D
b001 5
b100 *
b01 9
1l
b111 a
1L
b100 >
#1046
b1101000111 G
b0001000010 h
0k
b1101000111 ]
b11 H
0l
0L
b11 /
b11 \
#1051
b11 N
b001 R
1k
b11 D
b11 9
1l
b001 a
1L
#1056
b0001011100 G
b0111011000 h
12
0k
b0001011100 ]
0l
0L
b00 /
b00 \
#1061
b00 N
b000 R
1k
b00 D
b101 *
b00 9
1l
1L
#1066
b0001001011 G
b1001101111 h
0k
b0001001011 ]
0l
0L
#1071
1k
1l
1L
#1076
b0110101001 G
b0110101110 h
02
0k
b0110101001 ]
b01 H
0l
0L
b01 /
b01 \
#1081
b01 N
b111 R
1k
b01 D
b100 *
b01 9
1l
b111 a
1L
#1086
b0000101100 G
b1101001001 h
12
0k
b0000101100 ]
b11 H
0l
0L
b00 /
b00 \
#1091
b00 N
b000 R
1k
b00 D
b101 *
b00 9
1l
b001 a
1L
#1096
b10 g
b1000101100 G
b0100111010 h
02
0k
b1000101100 ]
b10 H
0l
0L
b10 /
b10 \
#1101
b10 N
b011 C
1k
b10 D
b000 5
b011 *
b10 9
1l
b000 a
1L
b011 >
#1106
b1010111010 G
b0100111001 h
0k
b1010111010 ]
0l
0L
#1111
1k
1l
1L
#1116
b11 g
b1100111101 G
b0101111100 h
0k
b1100111101 ]
b11 H
0l
0L
b11 /
b11 \
#1121
b11 N
b100 C
b001 R
1k
b11 D
b001 5
b100 *
b11 9
1l
b001 a
1L
b100 >
#1126
b000 X
b000 C
b010 R
b000 J
b010 5
b1101010011 h
b010 a
0L
b01 /
b001 b
b000 >
b01 \
b001 1
b0100011001 G
0k
b000 *
b0100011001 ]
b01 H
0l
#1131
b01 N
b000 R
1k
b01 D
b01 9
1l
b000 a
1L
#1136
b10 g
b1010111110 G
b0110100001 h
0k
b1010111110 ]
b10 H
0l
0L
b10 /
b10 \
#1141
b10 N
b111 C
b001 R
1k
b10 D
b001 5
b111 *
b10 9
1l
b001 a
1L
b111 >
#1146
b11 g
b0100011100 G
b0101010000 h
0k
b0100011100 ]
b01 H
0l
0L
b01 /
b01 \
#1151
b01 N
b000 C
b000 R
1k
b01 D
b010 5
b000 *
b01 9
1l
b000 a
1L
b000 >
#1156
b1101100101 G
b1000010000 h
0k
b1101100101 ]
b11 H
0l
0L
b11 /
b11 \
#1161
b11 N
b010 R
1k
b11 D
b11 9
1l
b010 a
1L
#1166
b10 g
b1011001000 G
b0110010000 h
0k
b1011001000 ]
b10 H
0l
0L
b10 /
b10 \
#1171
b10 N
b111 C
b001 R
1k
b10 D
b001 5
b111 *
b10 9
1l
b001 a
1L
b111 >
#1176
b1011010000 G
b1000110001 h
0k
b1011010000 ]
0l
0L
#1181
1k
1l
1L
#1186
b11 g
b0110011100 G
b1110011011 h
0k
b0110011100 ]
b01 H
0l
0L
b01 /
b01 \
#1191
b01 N
b000 C
b000 R
1k
b01 D
b010 5
b000 *
b01 9
1l
b000 a
1L
b000 >
#1196
b1101010001 G
b0100001110 h
0k
b1101010001 ]
b11 H
0l
0L
b11 /
b11 \
#1201
b11 N
b010 R
1k
b11 D
b11 9
1l
b010 a
1L
#1206
b0001011101 G
b0111100001 h
12
0k
b0001011101 ]
0l
0L
b00 /
b00 \
#1211
b00 N
b001 R
1k
b00 D
b001 *
b00 9
1l
1L
#1216
b1111000110 G
b0111010100 h
02
0k
b1111000110 ]
0l
0L
b11 /
b11 \
#1221
b11 N
b010 R
1k
b11 D
b000 *
b11 9
1l
1L
#1226
b0100101101 G
b1011000011 h
0k
b0100101101 ]
b01 H
0l
0L
b01 /
b01 \
#1231
b01 N
b000 R
1k
b01 D
b01 9
1l
b000 a
1L
#1236
b0111000110 G
b1010001110 h
0k
b0111000110 ]
0l
0L
#1241
1k
1l
1L
#1246
b0110101100 G
b0111001110 h
0k
b0110101100 ]
0l
0L
#1251
1k
1l
1L
#1256
b0111110010 G
b0001110110 h
0k
b0111110010 ]
0l
0L
#1261
1k
1l
1L
#1266
b1110001000 G
b1000011100 h
0k
b1110001000 ]
b11 H
0l
0L
b11 /
b11 \
#1271
b11 N
b010 R
1k
b11 D
b11 9
1l
b010 a
1L
#1276
b10 g
b1010111111 G
b0101111101 h
0k
b1010111111 ]
b10 H
0l
0L
b10 /
b10 \
#1281
b10 N
b111 C
b001 R
1k
b10 D
b001 5
b111 *
b10 9
1l
b001 a
1L
b111 >
#1286
b11 g
b0000101001 G
b0111100111 h
12
0k
b0000101001 ]
b11 H
0l
0L
b00 /
b00 \
#1291
b00 N
b000 C
1k
b00 D
b010 5
b001 *
b00 9
1l
b010 a
1L
b000 >
#1296
b0011000100 G
b0000101100 h
0k
b0011000100 ]
0l
0L
#1301
1k
1l
1L
#1306
b10 g
b1011010100 G
b1000110110 h
02
0k
b1011010100 ]
b10 H
0l
0L
b10 /
b10 \
#1311
b10 N
b111 C
1k
b10 D
b001 5
b111 *
b10 9
1l
b001 a
1L
b111 >
#1316
b1011100000 G
b0110100100 h
0k
b1011100000 ]
0l
0L
#1321
1k
1l
1L
#1326
b001 X
b000 C
b001 J
b1010111001 G
b0010000010 h
0k
b000 *
b1010111001 ]
0l
0L
b000 >
#1331
1k
1l
1L
#1336
b11 g
b0010110001 G
b0001001100 h
12
0k
b0010110001 ]
b11 H
0l
0L
b00 /
b00 \
#1341
b00 N
b001 C
1k
b00 D
b010 5
b010 *
b00 9
1l
b010 a
1L
b001 >
#1346
b1110000010 G
b0101010001 h
02
0k
b1110000010 ]
0l
0L
b11 /
b11 \
#1351
b11 N
b010 R
1k
b11 D
b001 *
b11 9
1l
1L
